p sp 100 1014
a 1 16 545
a 1 34 717
a 1 66 268
a 1 72 570
a 1 88 744
a 1 96 796
a 1 100 392
a 2 5 165
a 2 23 888
a 2 26 918
a 2 33 86
a 2 35 883
a 2 37 107
a 2 43 784
a 2 44 70
a 2 57 695
a 2 66 538
a 2 73 653
a 2 78 206
a 2 90 339
a 2 99 27
a 3 10 266
a 3 12 734
a 3 17 307
a 3 25 340
a 3 30 913
a 3 40 104
a 3 44 254
a 3 49 104
a 3 54 488
a 3 57 596
a 3 67 452
a 3 75 159
a 3 83 447
a 4 5 241
a 4 15 51
a 4 32 865
a 4 39 291
a 4 42 901
a 4 55 415
a 4 56 409
a 4 70 787
a 4 71 955
a 4 79 370
a 4 86 534
a 4 93 705
a 4 98 199
a 5 3 785
a 5 8 861
a 5 17 337
a 5 19 858
a 5 21 129
a 5 67 881
a 5 78 968
a 5 81 731
a 5 91 947
a 5 93 69
a 5 99 772
a 6 9 101
a 6 21 734
a 6 24 88
a 6 27 577
a 6 30 871
a 6 34 668
a 6 44 792
a 6 50 193
a 6 52 788
a 6 69 895
a 6 73 944
a 6 86 276
a 6 87 282
a 7 19 373
a 7 20 692
a 7 24 380
a 7 40 998
a 7 43 998
a 7 47 792
a 7 57 648
a 7 60 944
a 7 61 640
a 7 90 920
a 7 96 452
a 7 100 53
a 8 3 173
a 8 4 565
a 8 29 632
a 8 38 775
a 8 41 580
a 8 43 381
a 8 46 762
a 8 53 870
a 8 56 444
a 8 86 230
a 9 14 652
a 9 20 63
a 9 22 587
a 9 32 104
a 9 37 181
a 9 40 879
a 9 42 91
a 9 48 938
a 9 53 389
a 9 57 872
a 9 66 308
a 9 82 336
a 9 90 496
a 9 95 112
a 9 100 295
a 10 39 595
a 10 41 582
a 10 43 408
a 10 44 97
a 10 57 860
a 10 60 761
a 10 61 967
a 10 62 775
a 10 64 159
a 10 65 418
a 10 66 505
a 10 74 973
a 10 86 761
a 11 13 189
a 11 20 815
a 11 24 584
a 11 31 73
a 11 61 122
a 11 63 58
a 11 84 707
a 11 88 73
a 11 90 459
a 12 21 674
a 12 36 935
a 12 40 637
a 12 67 514
a 12 90 196
a 12 95 256
a 13 3 661
a 13 12 632
a 13 24 402
a 13 25 786
a 13 32 911
a 13 33 853
a 13 50 550
a 13 79 994
a 13 86 445
a 14 21 711
a 14 26 537
a 14 42 526
a 14 50 84
a 14 56 599
a 14 57 856
a 14 60 314
a 14 61 970
a 14 85 200
a 14 90 344
a 14 91 473
a 14 97 285
a 14 98 968
a 14 100 558
a 15 2 765
a 15 5 127
a 15 8 176
a 15 11 406
a 15 12 0
a 15 14 23
a 15 22 361
a 15 34 737
a 15 54 334
a 15 57 880
a 15 77 389
a 15 93 226
a 15 97 105
a 16 20 302
a 16 36 239
a 16 55 202
a 16 60 555
a 16 62 840
a 16 71 90
a 16 75 546
a 16 80 314
a 16 85 787
a 17 3 902
a 17 15 389
a 17 18 855
a 17 25 469
a 17 29 446
a 17 36 410
a 17 62 574
a 17 90 853
a 17 98 165
a 18 4 86
a 18 15 805
a 18 23 816
a 18 29 365
a 18 43 438
a 18 53 308
a 18 98 753
a 18 100 236
a 19 18 49
a 19 29 153
a 19 32 531
a 19 33 785
a 19 48 892
a 19 51 649
a 19 53 10
a 19 57 4
a 19 58 300
a 19 62 938
a 19 63 340
a 19 81 533
a 19 87 243
a 19 90 584
a 19 91 37
a 20 5 534
a 20 13 629
a 20 48 30
a 20 52 806
a 20 63 907
a 20 71 235
a 20 80 393
a 20 88 522
a 21 20 530
a 21 30 929
a 21 40 747
a 21 48 410
a 21 63 246
a 21 66 24
a 21 68 189
a 21 95 160
a 21 100 12
a 22 20 247
a 22 31 234
a 22 76 624
a 22 87 885
a 22 91 404
a 22 100 69
a 23 6 131
a 23 11 24
a 23 17 849
a 23 35 639
a 23 43 418
a 24 26 426
a 24 43 487
a 24 80 297
a 24 92 356
a 25 8 109
a 25 15 436
a 25 28 160
a 25 70 551
a 25 71 649
a 25 78 240
a 25 90 227
a 25 91 569
a 26 6 455
a 26 7 430
a 26 14 329
a 26 16 758
a 26 53 728
a 26 54 795
a 26 71 272
a 26 73 853
a 26 75 150
a 26 100 463
a 27 1 93
a 27 3 379
a 27 4 370
a 27 30 276
a 27 44 550
a 27 47 574
a 27 52 669
a 27 56 307
a 27 67 307
a 27 69 124
a 27 71 509
a 27 85 405
a 27 91 128
a 28 20 857
a 28 23 711
a 28 25 1
a 28 26 562
a 28 37 121
a 28 40 678
a 28 44 901
a 28 49 304
a 28 64 906
a 28 75 515
a 28 88 195
a 28 97 261
a 29 11 977
a 29 33 667
a 29 48 216
a 29 66 219
a 29 68 723
a 29 73 161
a 29 77 173
a 29 83 103
a 29 85 796
a 29 91 65
a 29 92 78
a 29 96 523
a 30 6 584
a 30 15 194
a 30 18 123
a 30 29 609
a 30 44 973
a 30 46 542
a 30 62 578
a 30 72 507
a 30 79 878
a 30 99 930
a 31 48 582
a 31 55 757
a 31 65 852
a 31 66 881
a 31 82 38
a 31 86 861
a 32 6 443
a 32 13 345
a 32 15 684
a 32 25 508
a 32 37 335
a 32 44 79
a 32 45 125
a 32 48 499
a 32 53 290
a 32 67 169
a 32 84 764
a 33 29 97
a 33 47 755
a 33 50 686
a 33 53 306
a 33 58 543
a 33 71 19
a 33 78 914
a 33 84 418
a 33 88 534
a 34 4 658
a 34 9 498
a 34 10 443
a 34 24 339
a 34 32 214
a 34 44 444
a 34 51 941
a 34 55 323
a 34 58 483
a 34 75 852
a 34 82 735
a 35 5 832
a 35 32 263
a 35 38 227
a 35 41 969
a 35 56 686
a 35 59 450
a 35 85 228
a 35 86 930
a 36 22 149
a 36 43 976
a 36 58 294
a 36 59 156
a 36 76 288
a 36 83 654
a 36 93 333
a 37 24 259
a 37 52 763
a 37 66 493
a 37 91 52
a 37 96 508
a 37 98 591
a 38 10 825
a 38 20 856
a 38 35 333
a 38 42 690
a 38 43 102
a 38 46 400
a 38 54 919
a 38 63 249
a 38 78 948
a 38 79 862
a 38 88 321
a 38 99 212
a 39 24 314
a 39 45 601
a 39 48 459
a 39 62 937
a 39 67 112
a 39 94 880
a 40 9 562
a 40 24 456
a 40 27 969
a 40 51 605
a 40 56 978
a 40 80 813
a 41 10 84
a 41 12 921
a 41 13 908
a 41 24 243
a 41 31 566
a 41 50 839
a 41 67 454
a 41 72 502
a 41 73 248
a 41 77 315
a 41 80 639
a 41 88 643
a 42 9 779
a 42 24 641
a 42 39 102
a 42 46 370
a 42 69 625
a 42 89 705
a 42 94 503
a 42 95 793
a 42 98 596
a 43 7 433
a 43 56 200
a 43 61 568
a 43 75 760
a 43 81 567
a 43 83 902
a 43 84 975
a 43 86 293
a 43 93 343
a 43 94 405
a 43 95 889
a 44 19 83
a 44 43 400
a 44 52 792
a 44 64 753
a 44 71 909
a 44 75 956
a 44 90 482
a 44 91 873
a 44 98 691
a 45 19 0
a 45 38 46
a 45 39 892
a 45 63 559
a 45 70 531
a 45 73 157
a 45 81 140
a 45 97 8
a 46 7 712
a 46 23 552
a 46 32 34
a 46 37 958
a 46 55 39
a 46 57 260
a 46 62 393
a 46 63 772
a 46 65 31
a 46 75 592
a 46 84 794
a 46 86 594
a 46 87 965
a 46 88 415
a 46 89 902
a 46 96 832
a 46 97 992
a 46 98 542
a 47 33 722
a 47 46 878
a 47 48 94
a 47 54 501
a 47 59 128
a 47 60 945
a 47 68 758
a 47 78 818
a 47 88 187
a 48 18 640
a 48 35 34
a 48 49 609
a 48 53 526
a 48 66 335
a 48 72 364
a 48 81 33
a 48 91 242
a 48 94 655
a 48 95 707
a 48 97 378
a 49 3 805
a 49 9 676
a 49 20 48
a 49 37 738
a 49 40 806
a 49 42 163
a 49 56 956
a 49 68 735
a 49 84 257
a 49 92 646
a 50 1 990
a 50 3 417
a 50 14 535
a 50 33 363
a 50 60 665
a 50 64 579
a 50 73 310
a 50 74 389
a 50 81 968
a 50 88 710
a 50 91 556
a 50 97 520
a 50 100 625
a 51 8 362
a 51 43 314
a 51 47 726
a 51 58 651
a 51 62 490
a 51 70 935
a 51 72 455
a 51 78 565
a 51 90 789
a 51 94 520
a 51 98 716
a 52 39 493
a 52 40 931
a 52 60 964
a 52 64 462
a 52 72 145
a 52 83 444
a 52 91 178
a 53 3 521
a 53 4 193
a 53 12 834
a 53 14 749
a 53 16 129
a 53 19 448
a 53 22 236
a 53 25 293
a 53 51 871
a 53 52 640
a 53 57 704
a 53 66 178
a 53 68 150
a 53 69 128
a 53 80 835
a 54 5 911
a 54 15 896
a 54 17 271
a 54 21 693
a 54 28 675
a 54 35 414
a 54 48 440
a 54 58 984
a 54 68 411
a 54 72 272
a 54 77 314
a 54 100 88
a 55 4 582
a 55 7 420
a 55 8 350
a 55 9 286
a 55 12 67
a 55 14 391
a 55 32 575
a 55 33 592
a 55 43 853
a 55 49 414
a 55 56 682
a 55 61 782
a 55 80 582
a 55 83 590
a 55 89 917
a 55 95 594
a 56 8 743
a 56 38 237
a 56 54 784
a 56 69 755
a 56 70 596
a 56 80 327
a 56 82 663
a 56 93 417
a 56 98 130
a 57 2 117
a 57 21 841
a 57 34 645
a 57 41 278
a 57 62 368
a 57 68 237
a 57 69 751
a 57 80 519
a 57 87 928
a 57 90 244
a 57 93 523
a 58 8 104
a 58 10 204
a 58 14 33
a 58 19 456
a 58 22 781
a 58 52 213
a 58 67 284
a 58 68 226
a 58 87 305
a 59 2 374
a 59 5 27
a 59 6 191
a 59 11 545
a 59 16 564
a 59 18 884
a 59 19 262
a 59 29 546
a 59 46 576
a 59 66 592
a 59 73 322
a 59 75 211
a 59 83 729
a 60 4 536
a 60 8 224
a 60 15 543
a 60 23 846
a 60 28 438
a 60 36 72
a 60 40 804
a 60 45 138
a 60 46 763
a 60 56 23
a 60 57 815
a 60 62 945
a 60 68 366
a 60 70 582
a 60 75 160
a 60 85 692
a 60 91 591
a 61 3 458
a 61 25 917
a 61 53 383
a 61 63 670
a 61 70 228
a 61 78 831
a 61 84 651
a 61 88 321
a 61 89 179
a 61 92 463
a 62 31 60
a 62 33 553
a 62 45 616
a 62 50 690
a 62 60 199
a 62 97 198
a 63 1 280
a 63 9 493
a 63 20 897
a 63 23 674
a 63 28 357
a 63 32 324
a 63 33 713
a 63 65 203
a 63 76 913
a 63 79 531
a 63 89 860
a 63 96 312
a 64 46 24
a 64 70 158
a 65 3 324
a 65 15 468
a 65 16 895
a 65 25 257
a 65 49 641
a 65 51 12
a 65 77 711
a 66 8 390
a 66 9 421
a 66 12 982
a 66 22 265
a 66 27 759
a 66 35 355
a 66 45 343
a 66 50 83
a 66 51 472
a 66 57 452
a 66 60 771
a 66 65 835
a 66 69 173
a 66 81 72
a 66 84 899
a 67 1 930
a 67 17 610
a 67 38 961
a 67 49 927
a 67 63 692
a 67 71 830
a 67 88 105
a 67 90 335
a 67 91 40
a 67 95 164
a 68 16 36
a 68 31 244
a 68 42 303
a 68 44 907
a 68 65 318
a 68 67 668
a 68 78 595
a 68 84 897
a 68 87 589
a 68 92 61
a 68 100 370
a 69 33 303
a 69 46 356
a 69 47 572
a 69 55 187
a 69 60 89
a 69 65 872
a 69 72 839
a 69 81 203
a 69 83 326
a 69 85 305
a 69 86 905
a 69 92 809
a 70 7 897
a 70 13 378
a 70 26 401
a 70 92 498
a 71 2 595
a 71 17 61
a 71 24 32
a 71 41 674
a 71 78 611
a 72 5 699
a 72 16 821
a 72 19 661
a 72 23 970
a 72 43 119
a 72 48 618
a 72 49 774
a 72 65 116
a 72 96 63
a 72 99 27
a 72 100 187
a 73 7 168
a 73 8 745
a 73 24 642
a 73 32 595
a 73 36 853
a 73 42 828
a 73 48 924
a 73 50 803
a 73 53 728
a 73 62 805
a 73 64 217
a 73 68 842
a 73 70 293
a 73 78 501
a 73 79 833
a 73 90 257
a 74 24 703
a 74 25 42
a 74 27 241
a 74 37 51
a 74 45 789
a 74 55 998
a 75 21 289
a 75 36 121
a 75 51 939
a 75 56 729
a 75 76 780
a 75 80 800
a 75 93 868
a 76 2 49
a 76 14 514
a 76 33 221
a 76 36 227
a 76 42 996
a 76 55 260
a 76 56 12
a 76 61 847
a 76 65 110
a 76 79 646
a 77 6 610
a 77 18 524
a 77 26 245
a 77 45 635
a 77 54 183
a 77 57 505
a 77 58 461
a 77 65 875
a 77 68 131
a 77 69 609
a 77 83 264
a 78 9 331
a 78 57 890
a 78 76 937
a 78 82 526
a 78 94 898
a 78 95 673
a 79 6 42
a 79 17 108
a 79 19 950
a 79 21 541
a 79 30 513
a 79 35 950
a 79 38 806
a 79 39 823
a 79 45 710
a 79 57 583
a 79 59 357
a 79 61 804
a 79 66 640
a 79 70 328
a 79 91 861
a 79 97 963
a 80 2 458
a 80 11 3
a 80 16 830
a 80 21 443
a 80 40 670
a 80 55 295
a 80 58 572
a 80 70 381
a 80 71 310
a 80 92 150
a 81 11 421
a 81 18 722
a 81 40 839
a 81 52 629
a 81 54 36
a 81 56 592
a 81 58 208
a 81 60 75
a 81 80 949
a 81 82 591
a 81 86 941
a 82 2 903
a 82 15 490
a 82 27 872
a 82 34 224
a 82 50 331
a 82 84 689
a 82 92 724
a 82 99 162
a 83 22 135
a 83 33 772
a 83 44 891
a 83 67 86
a 83 75 0
a 83 81 62
a 84 25 540
a 84 27 855
a 84 59 334
a 84 69 21
a 84 75 375
a 84 83 45
a 84 96 818
a 85 17 120
a 85 19 90
a 85 30 803
a 85 37 616
a 85 56 272
a 85 75 399
a 85 84 725
a 85 86 81
a 86 4 176
a 86 39 66
a 86 41 699
a 86 63 916
a 86 88 527
a 87 2 907
a 87 5 158
a 87 8 551
a 87 11 618
a 87 21 263
a 87 31 989
a 87 43 483
a 87 60 436
a 87 66 132
a 87 69 965
a 87 72 677
a 87 82 150
a 87 92 594
a 87 93 962
a 87 99 930
a 88 6 931
a 88 12 258
a 88 33 784
a 88 41 519
a 88 42 68
a 88 50 27
a 88 78 628
a 88 79 889
a 88 97 518
a 89 2 624
a 89 11 28
a 89 17 345
a 89 18 997
a 89 34 232
a 89 35 349
a 89 44 642
a 89 51 551
a 89 61 293
a 89 70 766
a 89 75 100
a 89 79 61
a 89 92 358
a 89 99 513
a 90 3 99
a 90 13 148
a 90 19 650
a 90 22 572
a 90 24 905
a 90 25 459
a 90 31 100
a 90 37 224
a 90 43 331
a 90 46 498
a 90 60 686
a 90 81 293
a 90 85 109
a 90 86 836
a 90 95 94
a 90 100 202
a 91 34 361
a 91 55 659
a 91 57 872
a 91 66 54
a 91 70 947
a 91 80 349
a 91 83 935
a 91 92 273
a 91 100 396
a 92 17 797
a 92 22 268
a 92 23 256
a 92 25 666
a 92 30 981
a 92 31 378
a 92 45 463
a 92 48 105
a 92 56 386
a 92 58 172
a 92 62 670
a 92 94 516
a 93 4 956
a 93 10 64
a 93 20 578
a 93 21 31
a 93 28 596
a 93 54 879
a 93 74 784
a 93 86 908
a 93 87 784
a 94 1 603
a 94 16 983
a 94 22 522
a 94 27 521
a 94 37 196
a 94 80 358
a 94 81 791
a 95 11 350
a 95 24 312
a 95 25 34
a 95 29 192
a 95 30 489
a 95 31 694
a 95 36 215
a 95 53 527
a 95 54 365
a 95 61 610
a 95 62 655
a 95 64 429
a 95 70 208
a 95 74 446
a 95 82 946
a 95 92 475
a 95 93 861
a 96 27 165
a 96 32 340
a 96 36 336
a 96 48 758
a 96 50 681
a 96 60 361
a 96 64 725
a 96 69 136
a 96 72 702
a 96 76 601
a 96 77 642
a 96 82 457
a 96 88 206
a 96 92 334
a 97 22 555
a 97 46 512
a 97 50 701
a 97 63 543
a 97 78 327
a 97 93 350
a 97 94 676
a 98 23 809
a 98 31 96
a 98 36 704
a 98 38 392
a 98 40 700
a 98 51 238
a 98 76 769
a 98 97 903
a 99 2 947
a 99 13 149
a 99 34 657
a 99 37 725
a 99 44 520
a 99 52 738
a 99 54 697
a 99 58 107
a 99 73 459
a 99 75 880
a 99 87 254
a 99 93 28
a 99 95 120
a 100 2 927
a 100 13 170
a 100 18 525
a 100 21 825
a 100 32 948
a 100 36 821
a 100 43 929
a 100 77 886
a 100 80 112
a 100 93 506
