p sp 100 4891
a 1 2 410
a 1 3 854
a 1 4 772
a 1 6 754
a 1 7 843
a 1 10 93
a 1 11 435
a 1 12 596
a 1 13 849
a 1 15 251
a 1 17 774
a 1 20 878
a 1 21 307
a 1 24 63
a 1 27 547
a 1 28 817
a 1 30 416
a 1 33 661
a 1 35 360
a 1 36 441
a 1 37 339
a 1 40 615
a 1 44 496
a 1 45 735
a 1 46 431
a 1 47 885
a 1 48 685
a 1 49 855
a 1 51 504
a 1 53 808
a 1 58 955
a 1 60 700
a 1 61 151
a 1 63 148
a 1 65 402
a 1 70 739
a 1 72 965
a 1 75 506
a 1 77 532
a 1 78 810
a 1 79 724
a 1 87 397
a 1 89 70
a 1 90 178
a 1 91 304
a 1 93 720
a 1 94 749
a 1 95 557
a 1 100 821
a 2 1 466
a 2 4 288
a 2 7 374
a 2 8 196
a 2 10 663
a 2 12 56
a 2 13 43
a 2 23 216
a 2 24 390
a 2 25 518
a 2 30 956
a 2 31 224
a 2 36 608
a 2 37 220
a 2 40 368
a 2 42 448
a 2 44 821
a 2 47 379
a 2 48 330
a 2 49 208
a 2 52 984
a 2 54 777
a 2 56 997
a 2 57 871
a 2 60 65
a 2 62 835
a 2 63 567
a 2 65 471
a 2 67 890
a 2 68 633
a 2 70 999
a 2 74 289
a 2 75 901
a 2 76 744
a 2 78 344
a 2 79 6
a 2 82 180
a 2 83 350
a 2 85 160
a 2 86 711
a 2 87 196
a 2 88 211
a 2 90 221
a 2 92 666
a 2 96 7
a 2 99 286
a 3 1 765
a 3 2 286
a 3 6 859
a 3 7 242
a 3 8 623
a 3 12 800
a 3 15 877
a 3 16 573
a 3 17 759
a 3 18 889
a 3 20 684
a 3 22 722
a 3 23 561
a 3 24 220
a 3 27 707
a 3 30 70
a 3 34 255
a 3 35 110
a 3 39 443
a 3 43 315
a 3 44 668
a 3 47 961
a 3 50 154
a 3 52 777
a 3 55 845
a 3 57 547
a 3 60 699
a 3 63 444
a 3 64 18
a 3 65 114
a 3 66 759
a 3 67 835
a 3 69 496
a 3 71 156
a 3 76 134
a 3 77 532
a 3 78 224
a 3 81 830
a 3 82 646
a 3 86 650
a 3 87 347
a 3 88 345
a 3 92 58
a 3 93 827
a 3 98 837
a 3 99 687
a 4 1 111
a 4 5 866
a 4 6 103
a 4 11 495
a 4 14 689
a 4 15 24
a 4 18 920
a 4 19 279
a 4 23 639
a 4 25 8
a 4 28 488
a 4 29 601
a 4 30 78
a 4 32 529
a 4 33 503
a 4 35 588
a 4 36 343
a 4 38 695
a 4 40 519
a 4 41 425
a 4 43 176
a 4 48 755
a 4 49 449
a 4 50 154
a 4 51 470
a 4 56 706
a 4 59 779
a 4 60 188
a 4 62 621
a 4 63 184
a 4 66 925
a 4 67 946
a 4 73 181
a 4 75 552
a 4 76 916
a 4 79 39
a 4 80 286
a 4 81 144
a 4 85 846
a 4 86 52
a 4 90 195
a 4 91 190
a 4 93 409
a 4 97 95
a 4 100 838
a 5 3 293
a 5 7 365
a 5 8 598
a 5 9 398
a 5 14 547
a 5 16 804
a 5 17 131
a 5 18 175
a 5 19 373
a 5 20 469
a 5 21 173
a 5 28 279
a 5 34 145
a 5 37 439
a 5 38 573
a 5 39 58
a 5 40 885
a 5 41 347
a 5 42 846
a 5 43 533
a 5 44 485
a 5 48 613
a 5 50 89
a 5 51 155
a 5 54 151
a 5 55 687
a 5 60 750
a 5 61 20
a 5 63 256
a 5 64 608
a 5 66 658
a 5 69 383
a 5 71 915
a 5 74 694
a 5 76 781
a 5 77 467
a 5 81 909
a 5 82 778
a 5 83 894
a 5 92 209
a 5 93 297
a 5 94 368
a 5 95 40
a 5 98 694
a 5 99 146
a 6 1 426
a 6 2 37
a 6 3 530
a 6 4 871
a 6 5 665
a 6 7 54
a 6 11 647
a 6 12 181
a 6 14 705
a 6 16 491
a 6 17 616
a 6 18 995
a 6 19 777
a 6 20 274
a 6 22 679
a 6 23 931
a 6 25 113
a 6 26 653
a 6 28 146
a 6 29 32
a 6 30 584
a 6 41 481
a 6 43 639
a 6 44 437
a 6 45 121
a 6 47 112
a 6 53 331
a 6 54 77
a 6 59 515
a 6 60 780
a 6 64 100
a 6 65 671
a 6 72 570
a 6 73 2
a 6 76 144
a 6 77 621
a 6 79 719
a 6 80 156
a 6 81 331
a 6 83 211
a 6 84 217
a 6 85 714
a 6 89 784
a 6 93 926
a 6 94 553
a 6 95 38
a 6 97 896
a 6 99 14
a 7 1 509
a 7 3 220
a 7 4 244
a 7 9 501
a 7 12 73
a 7 13 253
a 7 14 290
a 7 15 842
a 7 18 784
a 7 19 838
a 7 21 68
a 7 26 654
a 7 32 185
a 7 33 435
a 7 34 643
a 7 36 574
a 7 38 824
a 7 39 934
a 7 40 835
a 7 43 463
a 7 45 891
a 7 47 510
a 7 48 760
a 7 50 19
a 7 51 775
a 7 52 644
a 7 53 265
a 7 54 980
a 7 57 636
a 7 62 644
a 7 63 501
a 7 64 89
a 7 71 320
a 7 72 55
a 7 74 816
a 7 77 758
a 7 78 429
a 7 79 108
a 7 80 728
a 7 82 118
a 7 86 436
a 7 88 470
a 7 89 154
a 7 95 7
a 8 1 699
a 8 2 577
a 8 5 804
a 8 6 829
a 8 9 114
a 8 10 744
a 8 12 509
a 8 14 870
a 8 15 467
a 8 16 558
a 8 18 626
a 8 20 758
a 8 22 215
a 8 25 152
a 8 26 724
a 8 27 222
a 8 29 870
a 8 30 816
a 8 31 318
a 8 33 705
a 8 34 237
a 8 39 159
a 8 40 306
a 8 42 585
a 8 43 540
a 8 44 370
a 8 46 617
a 8 47 701
a 8 49 6
a 8 51 504
a 8 53 536
a 8 55 81
a 8 56 977
a 8 57 165
a 8 58 727
a 8 65 459
a 8 66 175
a 8 67 894
a 8 70 640
a 8 73 415
a 8 75 924
a 8 76 993
a 8 78 857
a 8 79 245
a 8 80 975
a 8 86 73
a 8 90 641
a 8 91 150
a 8 92 908
a 8 93 301
a 8 95 740
a 8 97 755
a 8 98 118
a 8 100 51
a 9 2 849
a 9 3 491
a 9 7 319
a 9 8 304
a 9 13 423
a 9 15 131
a 9 16 287
a 9 17 866
a 9 22 421
a 9 23 260
a 9 24 428
a 9 25 176
a 9 27 128
a 9 28 642
a 9 29 744
a 9 37 218
a 9 38 439
a 9 45 446
a 9 46 856
a 9 50 132
a 9 52 891
a 9 57 779
a 9 58 67
a 9 59 342
a 9 64 350
a 9 67 197
a 9 68 303
a 9 69 579
a 9 73 542
a 9 74 444
a 9 76 17
a 9 78 293
a 9 79 513
a 9 82 964
a 9 87 179
a 9 88 408
a 9 89 810
a 9 90 827
a 9 91 444
a 9 93 56
a 9 95 60
a 9 97 520
a 10 1 119
a 10 4 547
a 10 6 189
a 10 11 97
a 10 13 485
a 10 14 80
a 10 15 66
a 10 17 990
a 10 19 385
a 10 20 156
a 10 21 666
a 10 24 561
a 10 25 15
a 10 27 784
a 10 28 188
a 10 29 541
a 10 30 76
a 10 31 49
a 10 32 274
a 10 34 763
a 10 39 977
a 10 40 887
a 10 41 620
a 10 42 411
a 10 44 777
a 10 46 437
a 10 48 145
a 10 49 353
a 10 50 294
a 10 52 695
a 10 58 896
a 10 59 377
a 10 60 782
a 10 62 101
a 10 65 142
a 10 70 354
a 10 71 667
a 10 72 835
a 10 73 244
a 10 83 464
a 10 86 203
a 10 87 952
a 10 88 800
a 10 89 906
a 10 93 321
a 10 94 411
a 10 95 907
a 10 96 16
a 10 97 572
a 10 98 134
a 10 100 466
a 11 4 385
a 11 9 683
a 11 10 448
a 11 15 970
a 11 18 398
a 11 19 144
a 11 20 938
a 11 21 481
a 11 22 540
a 11 23 73
a 11 24 126
a 11 25 228
a 11 26 496
a 11 27 836
a 11 28 796
a 11 30 511
a 11 31 484
a 11 33 629
a 11 34 837
a 11 35 30
a 11 37 854
a 11 39 890
a 11 40 764
a 11 41 840
a 11 42 428
a 11 43 722
a 11 46 828
a 11 47 621
a 11 51 598
a 11 53 222
a 11 55 887
a 11 56 618
a 11 57 864
a 11 59 89
a 11 63 204
a 11 65 616
a 11 67 391
a 11 68 151
a 11 73 781
a 11 74 586
a 11 75 932
a 11 76 455
a 11 77 468
a 11 78 111
a 11 79 737
a 11 82 271
a 11 84 652
a 11 85 530
a 11 90 406
a 11 91 158
a 11 92 316
a 11 94 724
a 11 95 682
a 11 96 542
a 11 97 869
a 11 100 669
a 12 3 165
a 12 4 750
a 12 11 259
a 12 15 796
a 12 17 395
a 12 18 146
a 12 19 813
a 12 20 995
a 12 21 836
a 12 22 995
a 12 26 369
a 12 29 412
a 12 30 410
a 12 31 136
a 12 34 50
a 12 36 221
a 12 38 780
a 12 40 877
a 12 41 997
a 12 42 274
a 12 46 510
a 12 48 483
a 12 52 663
a 12 56 61
a 12 57 246
a 12 58 911
a 12 62 101
a 12 63 46
a 12 65 870
a 12 66 92
a 12 68 522
a 12 69 928
a 12 73 742
a 12 74 373
a 12 75 877
a 12 76 235
a 12 78 509
a 12 79 344
a 12 80 778
a 12 83 77
a 12 84 574
a 12 85 442
a 12 86 612
a 12 88 53
a 12 94 122
a 12 95 165
a 12 99 903
a 12 100 464
a 13 1 199
a 13 3 941
a 13 4 998
a 13 6 674
a 13 8 156
a 13 11 317
a 13 12 473
a 13 14 415
a 13 20 847
a 13 21 729
a 13 28 625
a 13 33 96
a 13 35 944
a 13 36 147
a 13 39 360
a 13 40 622
a 13 42 462
a 13 43 517
a 13 45 724
a 13 46 252
a 13 49 941
a 13 55 849
a 13 56 521
a 13 57 66
a 13 58 685
a 13 59 357
a 13 60 95
a 13 62 241
a 13 63 192
a 13 64 729
a 13 65 763
a 13 66 336
a 13 67 114
a 13 68 578
a 13 72 582
a 13 77 967
a 13 82 934
a 13 83 549
a 13 84 486
a 13 87 651
a 13 88 868
a 13 89 336
a 13 91 196
a 13 93 134
a 13 96 868
a 13 97 579
a 13 98 383
a 13 99 122
a 14 4 84
a 14 6 519
a 14 7 806
a 14 8 157
a 14 10 107
a 14 12 902
a 14 13 216
a 14 16 389
a 14 17 223
a 14 18 972
a 14 21 451
a 14 26 260
a 14 31 390
a 14 32 494
a 14 33 548
a 14 36 994
a 14 37 623
a 14 40 374
a 14 41 599
a 14 42 868
a 14 46 783
a 14 47 306
a 14 48 149
a 14 50 646
a 14 51 344
a 14 52 478
a 14 56 504
a 14 57 147
a 14 58 588
a 14 60 812
a 14 61 746
a 14 63 19
a 14 64 275
a 14 65 872
a 14 67 87
a 14 69 232
a 14 73 856
a 14 74 589
a 14 77 841
a 14 79 572
a 14 81 421
a 14 87 404
a 14 88 359
a 14 91 297
a 14 94 178
a 14 97 638
a 14 98 812
a 14 99 259
a 14 100 54
a 15 3 282
a 15 5 723
a 15 7 737
a 15 8 819
a 15 9 231
a 15 12 730
a 15 14 325
a 15 18 74
a 15 21 249
a 15 22 471
a 15 23 150
a 15 25 139
a 15 27 674
a 15 29 937
a 15 32 614
a 15 34 208
a 15 35 687
a 15 36 53
a 15 40 611
a 15 41 762
a 15 46 561
a 15 48 655
a 15 49 727
a 15 50 987
a 15 57 618
a 15 58 867
a 15 60 913
a 15 63 400
a 15 64 751
a 15 65 973
a 15 69 358
a 15 72 400
a 15 75 938
a 15 79 913
a 15 80 502
a 15 81 784
a 15 82 748
a 15 87 127
a 15 88 110
a 15 92 689
a 15 96 210
a 15 97 990
a 16 1 358
a 16 5 987
a 16 6 550
a 16 7 191
a 16 12 907
a 16 13 297
a 16 15 186
a 16 18 548
a 16 20 105
a 16 21 64
a 16 24 771
a 16 25 903
a 16 26 803
a 16 27 172
a 16 28 169
a 16 30 311
a 16 31 130
a 16 32 327
a 16 34 27
a 16 35 221
a 16 36 611
a 16 41 799
a 16 44 368
a 16 47 497
a 16 48 387
a 16 51 330
a 16 52 644
a 16 55 402
a 16 58 582
a 16 61 709
a 16 65 769
a 16 70 554
a 16 73 100
a 16 76 541
a 16 77 396
a 16 78 728
a 16 79 704
a 16 83 438
a 16 84 87
a 16 86 162
a 16 89 681
a 16 90 506
a 16 93 641
a 16 95 496
a 16 97 198
a 17 2 124
a 17 3 597
a 17 9 180
a 17 10 965
a 17 12 887
a 17 15 999
a 17 18 651
a 17 23 456
a 17 24 495
a 17 25 904
a 17 27 47
a 17 28 411
a 17 31 662
a 17 33 521
a 17 34 892
a 17 37 98
a 17 38 346
a 17 39 417
a 17 44 727
a 17 46 633
a 17 48 851
a 17 49 635
a 17 50 284
a 17 53 706
a 17 54 635
a 17 56 132
a 17 57 340
a 17 58 629
a 17 61 708
a 17 62 699
a 17 63 875
a 17 64 812
a 17 66 473
a 17 69 151
a 17 71 939
a 17 72 699
a 17 74 529
a 17 75 349
a 17 76 946
a 17 78 794
a 17 80 177
a 17 81 884
a 17 83 713
a 17 85 907
a 17 87 426
a 17 88 572
a 17 91 467
a 17 96 154
a 17 97 233
a 17 98 210
a 18 3 737
a 18 7 810
a 18 9 585
a 18 10 349
a 18 11 759
a 18 12 102
a 18 13 632
a 18 21 144
a 18 24 663
a 18 27 164
a 18 29 125
a 18 33 648
a 18 34 818
a 18 35 653
a 18 36 597
a 18 37 958
a 18 38 870
a 18 39 461
a 18 45 538
a 18 47 979
a 18 51 190
a 18 52 59
a 18 53 299
a 18 57 922
a 18 58 164
a 18 62 367
a 18 64 297
a 18 65 556
a 18 66 491
a 18 67 37
a 18 68 366
a 18 69 318
a 18 70 929
a 18 71 883
a 18 72 105
a 18 73 628
a 18 75 806
a 18 76 486
a 18 77 582
a 18 79 639
a 18 81 885
a 18 84 17
a 18 85 656
a 18 86 202
a 18 88 174
a 18 90 769
a 18 91 241
a 18 93 327
a 18 94 294
a 18 95 478
a 18 98 405
a 18 99 150
a 19 1 906
a 19 2 719
a 19 4 519
a 19 6 467
a 19 10 68
a 19 11 708
a 19 12 368
a 19 14 250
a 19 15 789
a 19 17 581
a 19 23 23
a 19 25 423
a 19 26 81
a 19 27 787
a 19 29 950
a 19 30 494
a 19 31 261
a 19 32 753
a 19 33 962
a 19 35 227
a 19 36 633
a 19 38 686
a 19 39 437
a 19 41 108
a 19 42 303
a 19 43 521
a 19 44 831
a 19 46 326
a 19 49 518
a 19 50 92
a 19 51 915
a 19 55 750
a 19 56 536
a 19 57 485
a 19 58 206
a 19 61 313
a 19 69 611
a 19 70 744
a 19 71 577
a 19 72 267
a 19 75 626
a 19 78 217
a 19 84 6
a 19 85 303
a 19 86 178
a 19 89 123
a 19 90 145
a 19 91 147
a 19 92 485
a 19 95 371
a 19 96 954
a 19 98 987
a 20 1 749
a 20 2 743
a 20 6 624
a 20 10 259
a 20 14 813
a 20 19 139
a 20 26 611
a 20 29 427
a 20 31 213
a 20 35 327
a 20 37 21
a 20 38 169
a 20 39 172
a 20 40 642
a 20 43 542
a 20 46 594
a 20 47 478
a 20 49 759
a 20 50 388
a 20 51 74
a 20 52 168
a 20 57 918
a 20 60 348
a 20 63 907
a 20 64 838
a 20 65 362
a 20 68 351
a 20 69 791
a 20 73 943
a 20 74 775
a 20 76 649
a 20 79 444
a 20 80 596
a 20 81 812
a 20 82 268
a 20 84 670
a 20 85 210
a 20 88 796
a 20 89 544
a 20 92 705
a 20 93 580
a 20 95 728
a 20 99 136
a 20 100 667
a 21 3 114
a 21 4 72
a 21 7 947
a 21 8 979
a 21 11 192
a 21 14 634
a 21 17 660
a 21 20 15
a 21 22 654
a 21 23 759
a 21 27 727
a 21 30 657
a 21 33 602
a 21 35 465
a 21 37 696
a 21 41 832
a 21 43 837
a 21 46 386
a 21 47 131
a 21 50 689
a 21 54 95
a 21 55 95
a 21 58 424
a 21 60 218
a 21 61 19
a 21 62 258
a 21 63 313
a 21 64 296
a 21 67 704
a 21 69 421
a 21 71 181
a 21 72 645
a 21 73 456
a 21 74 201
a 21 75 680
a 21 76 791
a 21 78 923
a 21 81 321
a 21 83 45
a 21 85 443
a 21 88 330
a 21 89 857
a 21 91 935
a 21 94 791
a 21 96 209
a 21 97 585
a 21 99 980
a 22 1 894
a 22 2 819
a 22 3 815
a 22 7 24
a 22 8 521
a 22 9 339
a 22 10 104
a 22 12 50
a 22 15 678
a 22 17 349
a 22 19 785
a 22 20 383
a 22 26 647
a 22 28 901
a 22 33 924
a 22 34 314
a 22 35 569
a 22 37 540
a 22 38 272
a 22 39 871
a 22 41 898
a 22 46 618
a 22 47 177
a 22 48 853
a 22 49 814
a 22 53 659
a 22 54 708
a 22 55 300
a 22 56 293
a 22 58 764
a 22 59 504
a 22 60 328
a 22 62 80
a 22 64 841
a 22 67 513
a 22 68 533
a 22 69 750
a 22 70 253
a 22 71 541
a 22 72 633
a 22 73 979
a 22 74 133
a 22 77 352
a 22 78 315
a 22 80 574
a 22 85 127
a 22 86 39
a 22 88 361
a 22 89 745
a 22 90 288
a 22 91 842
a 22 95 332
a 22 97 302
a 22 100 939
a 23 1 978
a 23 4 576
a 23 6 457
a 23 7 786
a 23 8 137
a 23 9 202
a 23 10 157
a 23 11 579
a 23 13 871
a 23 18 672
a 23 20 216
a 23 24 323
a 23 26 127
a 23 27 922
a 23 28 220
a 23 29 942
a 23 30 867
a 23 31 754
a 23 34 778
a 23 35 896
a 23 37 293
a 23 38 511
a 23 41 556
a 23 42 903
a 23 44 446
a 23 45 848
a 23 49 405
a 23 54 811
a 23 55 405
a 23 56 518
a 23 57 784
a 23 59 365
a 23 61 512
a 23 65 310
a 23 67 600
a 23 68 82
a 23 69 836
a 23 72 579
a 23 73 307
a 23 74 869
a 23 75 281
a 23 78 605
a 23 80 903
a 23 81 279
a 23 83 896
a 23 85 914
a 23 86 253
a 23 88 886
a 23 89 991
a 23 90 261
a 23 96 165
a 23 98 285
a 23 99 272
a 24 2 553
a 24 3 165
a 24 8 357
a 24 11 832
a 24 12 660
a 24 13 406
a 24 15 291
a 24 16 781
a 24 19 442
a 24 20 502
a 24 21 592
a 24 22 212
a 24 26 451
a 24 28 989
a 24 30 699
a 24 31 872
a 24 32 346
a 24 34 571
a 24 35 101
a 24 37 152
a 24 39 800
a 24 43 570
a 24 47 469
a 24 48 575
a 24 54 727
a 24 55 34
a 24 58 453
a 24 59 386
a 24 62 127
a 24 70 274
a 24 71 513
a 24 72 658
a 24 73 596
a 24 74 117
a 24 77 370
a 24 78 737
a 24 80 410
a 24 82 377
a 24 88 876
a 24 89 35
a 24 90 256
a 24 92 225
a 24 94 632
a 24 95 362
a 24 96 650
a 24 100 448
a 25 1 95
a 25 3 22
a 25 7 700
a 25 12 685
a 25 15 713
a 25 17 931
a 25 19 892
a 25 20 982
a 25 21 674
a 25 23 763
a 25 26 367
a 25 30 488
a 25 31 953
a 25 33 665
a 25 35 276
a 25 37 519
a 25 38 809
a 25 39 470
a 25 41 99
a 25 42 763
a 25 44 523
a 25 45 149
a 25 46 641
a 25 49 954
a 25 51 438
a 25 53 134
a 25 54 940
a 25 56 811
a 25 57 823
a 25 62 228
a 25 64 775
a 25 65 824
a 25 69 63
a 25 72 454
a 25 73 128
a 25 74 958
a 25 75 131
a 25 77 730
a 25 79 759
a 25 81 766
a 25 82 953
a 25 83 137
a 25 86 736
a 25 87 937
a 25 88 528
a 25 89 791
a 25 90 420
a 25 92 811
a 25 93 129
a 25 94 469
a 25 99 284
a 26 1 408
a 26 4 622
a 26 9 570
a 26 10 446
a 26 11 938
a 26 12 906
a 26 14 13
a 26 15 609
a 26 17 294
a 26 22 852
a 26 23 819
a 26 24 486
a 26 30 758
a 26 31 347
a 26 33 533
a 26 35 563
a 26 38 393
a 26 40 640
a 26 41 838
a 26 43 359
a 26 44 119
a 26 47 470
a 26 52 532
a 26 53 743
a 26 54 354
a 26 57 660
a 26 58 208
a 26 59 308
a 26 63 519
a 26 64 991
a 26 65 810
a 26 69 468
a 26 73 241
a 26 79 584
a 26 82 751
a 26 86 309
a 26 89 190
a 26 90 236
a 26 91 946
a 26 94 321
a 26 95 504
a 26 96 712
a 26 97 718
a 27 3 371
a 27 4 931
a 27 5 781
a 27 6 259
a 27 8 493
a 27 10 120
a 27 14 180
a 27 15 973
a 27 17 590
a 27 18 117
a 27 19 337
a 27 20 905
a 27 21 5
a 27 22 753
a 27 23 536
a 27 24 691
a 27 25 777
a 27 26 346
a 27 28 111
a 27 30 783
a 27 31 462
a 27 32 481
a 27 34 584
a 27 35 698
a 27 39 757
a 27 40 304
a 27 42 423
a 27 43 897
a 27 45 275
a 27 48 318
a 27 50 118
a 27 54 19
a 27 55 188
a 27 56 255
a 27 58 406
a 27 59 102
a 27 60 13
a 27 61 354
a 27 65 799
a 27 66 631
a 27 67 828
a 27 69 708
a 27 71 679
a 27 73 701
a 27 74 483
a 27 76 906
a 27 81 16
a 27 82 546
a 27 86 928
a 27 88 215
a 27 89 844
a 27 90 777
a 27 93 118
a 27 96 585
a 27 97 755
a 27 98 20
a 28 6 751
a 28 9 7
a 28 11 664
a 28 12 557
a 28 13 353
a 28 16 371
a 28 18 501
a 28 19 537
a 28 22 264
a 28 23 561
a 28 24 929
a 28 25 449
a 28 26 149
a 28 27 118
a 28 29 554
a 28 30 962
a 28 31 179
a 28 34 67
a 28 36 177
a 28 39 830
a 28 42 435
a 28 43 552
a 28 45 233
a 28 46 110
a 28 47 812
a 28 48 468
a 28 49 557
a 28 52 291
a 28 63 593
a 28 64 378
a 28 67 341
a 28 68 532
a 28 70 404
a 28 71 652
a 28 72 556
a 28 77 987
a 28 78 568
a 28 79 865
a 28 80 552
a 28 81 863
a 28 83 109
a 28 84 930
a 28 85 227
a 28 90 691
a 28 91 129
a 28 92 818
a 28 94 938
a 28 95 892
a 28 96 734
a 28 97 811
a 28 98 529
a 28 100 827
a 29 1 964
a 29 3 783
a 29 9 110
a 29 10 475
a 29 11 536
a 29 14 579
a 29 15 380
a 29 17 181
a 29 18 684
a 29 20 701
a 29 21 709
a 29 22 397
a 29 23 25
a 29 25 658
a 29 26 468
a 29 27 888
a 29 31 18
a 29 32 47
a 29 34 561
a 29 42 526
a 29 44 889
a 29 45 171
a 29 46 392
a 29 47 493
a 29 49 72
a 29 54 528
a 29 55 724
a 29 56 225
a 29 60 775
a 29 62 386
a 29 63 387
a 29 66 887
a 29 67 804
a 29 68 308
a 29 69 314
a 29 71 556
a 29 72 847
a 29 75 156
a 29 78 78
a 29 79 243
a 29 80 10
a 29 84 143
a 29 88 408
a 29 89 735
a 29 90 780
a 29 94 575
a 29 96 522
a 30 1 181
a 30 2 98
a 30 3 193
a 30 6 800
a 30 7 236
a 30 8 122
a 30 9 398
a 30 11 297
a 30 13 278
a 30 14 308
a 30 16 106
a 30 18 777
a 30 24 542
a 30 25 407
a 30 26 857
a 30 27 723
a 30 28 86
a 30 34 180
a 30 36 736
a 30 41 130
a 30 42 660
a 30 43 418
a 30 46 491
a 30 47 455
a 30 48 97
a 30 50 716
a 30 52 440
a 30 53 246
a 30 55 190
a 30 56 668
a 30 57 496
a 30 58 653
a 30 59 536
a 30 60 604
a 30 62 973
a 30 63 302
a 30 65 539
a 30 66 626
a 30 67 933
a 30 69 697
a 30 70 733
a 30 72 737
a 30 75 730
a 30 77 177
a 30 78 43
a 30 81 838
a 30 89 957
a 30 93 175
a 30 95 862
a 30 100 111
a 31 2 344
a 31 4 890
a 31 6 813
a 31 7 445
a 31 9 909
a 31 11 173
a 31 16 245
a 31 17 59
a 31 19 673
a 31 20 829
a 31 23 744
a 31 25 883
a 31 26 300
a 31 27 320
a 31 28 657
a 31 29 752
a 31 32 731
a 31 33 199
a 31 34 276
a 31 35 27
a 31 38 411
a 31 39 152
a 31 40 87
a 31 41 953
a 31 42 501
a 31 43 747
a 31 45 251
a 31 47 58
a 31 53 610
a 31 54 377
a 31 56 966
a 31 57 572
a 31 59 565
a 31 68 873
a 31 69 462
a 31 70 146
a 31 71 657
a 31 72 10
a 31 76 130
a 31 77 55
a 31 78 612
a 31 80 669
a 31 83 921
a 31 85 997
a 31 86 346
a 31 90 462
a 31 91 793
a 31 92 27
a 31 95 433
a 31 96 178
a 32 1 736
a 32 2 209
a 32 3 611
a 32 4 607
a 32 7 209
a 32 8 85
a 32 9 670
a 32 11 139
a 32 13 173
a 32 14 759
a 32 15 978
a 32 16 640
a 32 18 661
a 32 19 705
a 32 24 186
a 32 27 689
a 32 30 59
a 32 31 245
a 32 35 290
a 32 36 131
a 32 38 91
a 32 41 178
a 32 43 551
a 32 45 977
a 32 47 848
a 32 49 209
a 32 50 911
a 32 55 466
a 32 57 923
a 32 58 624
a 32 60 743
a 32 61 714
a 32 62 817
a 32 63 88
a 32 64 18
a 32 65 371
a 32 66 452
a 32 68 281
a 32 69 590
a 32 75 822
a 32 78 126
a 32 81 892
a 32 85 667
a 32 89 560
a 32 90 919
a 32 93 547
a 32 94 658
a 32 96 458
a 32 97 49
a 32 98 105
a 32 99 922
a 33 3 332
a 33 5 991
a 33 8 653
a 33 9 295
a 33 12 207
a 33 13 180
a 33 15 904
a 33 16 475
a 33 17 492
a 33 18 962
a 33 20 233
a 33 21 409
a 33 22 838
a 33 23 844
a 33 27 521
a 33 28 995
a 33 29 407
a 33 31 19
a 33 32 945
a 33 34 315
a 33 36 355
a 33 40 759
a 33 41 872
a 33 43 274
a 33 44 319
a 33 45 164
a 33 48 561
a 33 49 658
a 33 51 947
a 33 52 339
a 33 54 295
a 33 55 337
a 33 61 388
a 33 63 382
a 33 66 539
a 33 67 28
a 33 74 575
a 33 75 879
a 33 78 964
a 33 80 626
a 33 82 38
a 33 83 172
a 33 88 663
a 33 92 525
a 33 93 238
a 33 94 976
a 33 95 536
a 33 98 518
a 33 99 576
a 33 100 535
a 34 4 926
a 34 6 785
a 34 8 521
a 34 12 983
a 34 13 121
a 34 16 790
a 34 19 276
a 34 20 41
a 34 21 484
a 34 25 207
a 34 26 105
a 34 29 696
a 34 30 568
a 34 32 211
a 34 35 997
a 34 37 985
a 34 38 702
a 34 39 75
a 34 41 430
a 34 42 878
a 34 43 797
a 34 46 858
a 34 47 52
a 34 49 251
a 34 54 131
a 34 55 313
a 34 56 196
a 34 58 747
a 34 59 442
a 34 60 383
a 34 61 83
a 34 63 378
a 34 66 16
a 34 67 865
a 34 70 844
a 34 71 497
a 34 74 377
a 34 75 959
a 34 76 289
a 34 79 233
a 34 80 187
a 34 81 113
a 34 82 559
a 34 90 337
a 34 91 923
a 34 93 315
a 34 95 207
a 34 97 572
a 34 98 327
a 34 100 656
a 35 3 215
a 35 5 977
a 35 10 481
a 35 14 266
a 35 17 875
a 35 19 999
a 35 20 342
a 35 21 794
a 35 22 231
a 35 24 33
a 35 27 930
a 35 28 126
a 35 29 552
a 35 32 611
a 35 34 794
a 35 43 791
a 35 49 930
a 35 53 28
a 35 54 205
a 35 56 872
a 35 57 372
a 35 60 529
a 35 62 545
a 35 63 633
a 35 64 265
a 35 66 62
a 35 69 441
a 35 72 193
a 35 73 63
a 35 79 554
a 35 80 394
a 35 83 735
a 35 84 685
a 35 85 994
a 35 88 818
a 35 89 62
a 35 92 644
a 36 1 534
a 36 4 244
a 36 6 560
a 36 7 436
a 36 11 121
a 36 13 807
a 36 14 280
a 36 15 247
a 36 16 966
a 36 17 975
a 36 22 91
a 36 23 250
a 36 26 374
a 36 29 599
a 36 30 367
a 36 31 6
a 36 32 393
a 36 37 876
a 36 39 133
a 36 41 991
a 36 42 146
a 36 43 727
a 36 46 3
a 36 47 173
a 36 51 402
a 36 52 385
a 36 55 70
a 36 57 130
a 36 59 287
a 36 62 897
a 36 65 762
a 36 68 340
a 36 69 997
a 36 71 312
a 36 73 624
a 36 75 401
a 36 79 247
a 36 80 455
a 36 84 293
a 36 86 150
a 36 87 129
a 36 88 263
a 36 90 179
a 36 92 556
a 36 97 283
a 36 98 839
a 37 1 746
a 37 3 837
a 37 7 328
a 37 8 538
a 37 9 83
a 37 10 66
a 37 14 20
a 37 16 478
a 37 18 899
a 37 19 385
a 37 21 745
a 37 25 301
a 37 28 414
a 37 29 712
a 37 30 908
a 37 34 249
a 37 35 351
a 37 40 845
a 37 41 911
a 37 43 641
a 37 44 342
a 37 45 572
a 37 46 773
a 37 47 279
a 37 49 551
a 37 50 859
a 37 51 642
a 37 54 339
a 37 55 41
a 37 56 191
a 37 58 63
a 37 59 287
a 37 60 78
a 37 61 516
a 37 62 629
a 37 64 869
a 37 65 332
a 37 68 833
a 37 70 422
a 37 74 964
a 37 75 623
a 37 76 476
a 37 80 313
a 37 81 81
a 37 82 144
a 37 83 922
a 37 87 793
a 37 88 678
a 37 90 164
a 37 94 649
a 37 95 331
a 37 99 932
a 38 1 873
a 38 2 906
a 38 3 511
a 38 7 571
a 38 8 616
a 38 9 613
a 38 10 581
a 38 12 266
a 38 14 266
a 38 15 335
a 38 18 439
a 38 21 883
a 38 22 601
a 38 26 880
a 38 27 925
a 38 31 585
a 38 34 745
a 38 35 487
a 38 39 134
a 38 42 641
a 38 44 457
a 38 46 241
a 38 48 125
a 38 50 915
a 38 53 64
a 38 54 320
a 38 55 575
a 38 56 70
a 38 60 335
a 38 62 431
a 38 63 669
a 38 69 778
a 38 74 71
a 38 75 798
a 38 76 618
a 38 77 578
a 38 79 43
a 38 80 100
a 38 82 804
a 38 84 769
a 38 87 51
a 38 88 76
a 38 89 680
a 38 90 744
a 38 91 469
a 38 94 99
a 38 95 987
a 38 99 990
a 38 100 804
a 39 1 158
a 39 3 882
a 39 4 885
a 39 5 413
a 39 6 768
a 39 8 269
a 39 10 651
a 39 11 400
a 39 14 716
a 39 15 129
a 39 18 40
a 39 19 305
a 39 20 455
a 39 21 13
a 39 22 657
a 39 23 199
a 39 24 392
a 39 28 905
a 39 31 538
a 39 32 125
a 39 34 932
a 39 35 175
a 39 37 3
a 39 38 838
a 39 42 747
a 39 43 368
a 39 44 388
a 39 45 744
a 39 46 854
a 39 47 270
a 39 49 552
a 39 50 463
a 39 51 738
a 39 52 644
a 39 53 585
a 39 55 832
a 39 56 46
a 39 61 281
a 39 63 374
a 39 64 886
a 39 67 652
a 39 68 253
a 39 72 472
a 39 74 434
a 39 75 574
a 39 76 397
a 39 85 244
a 39 87 255
a 39 89 754
a 39 91 489
a 39 92 500
a 39 97 487
a 39 98 141
a 40 9 570
a 40 10 287
a 40 12 477
a 40 13 519
a 40 15 828
a 40 18 947
a 40 20 890
a 40 23 193
a 40 24 732
a 40 25 346
a 40 26 760
a 40 28 152
a 40 29 445
a 40 31 645
a 40 33 973
a 40 34 209
a 40 35 282
a 40 46 102
a 40 48 282
a 40 49 675
a 40 51 808
a 40 54 739
a 40 59 212
a 40 61 800
a 40 62 52
a 40 63 924
a 40 64 828
a 40 65 757
a 40 68 266
a 40 69 415
a 40 71 27
a 40 72 299
a 40 75 392
a 40 76 837
a 40 77 98
a 40 80 595
a 40 82 791
a 40 85 721
a 40 86 531
a 40 87 495
a 40 90 933
a 40 93 959
a 40 96 475
a 40 97 430
a 40 99 845
a 40 100 659
a 41 2 226
a 41 4 428
a 41 5 318
a 41 6 270
a 41 7 446
a 41 10 943
a 41 14 821
a 41 15 419
a 41 16 83
a 41 17 834
a 41 18 237
a 41 23 447
a 41 28 585
a 41 29 244
a 41 30 851
a 41 32 813
a 41 37 142
a 41 42 789
a 41 43 857
a 41 48 843
a 41 49 640
a 41 51 491
a 41 53 224
a 41 55 516
a 41 57 199
a 41 58 34
a 41 59 901
a 41 61 71
a 41 65 494
a 41 66 296
a 41 67 495
a 41 68 18
a 41 70 654
a 41 71 239
a 41 73 928
a 41 74 142
a 41 78 132
a 41 79 740
a 41 80 256
a 41 82 513
a 41 84 769
a 41 86 983
a 41 89 681
a 41 91 960
a 41 93 899
a 41 94 80
a 41 95 421
a 41 98 825
a 41 99 985
a 41 100 759
a 42 1 167
a 42 3 508
a 42 4 635
a 42 5 422
a 42 9 572
a 42 11 241
a 42 14 83
a 42 16 192
a 42 20 550
a 42 22 70
a 42 24 48
a 42 25 207
a 42 26 228
a 42 27 363
a 42 28 75
a 42 30 894
a 42 34 86
a 42 35 302
a 42 37 531
a 42 38 711
a 42 40 281
a 42 41 245
a 42 43 827
a 42 46 904
a 42 47 657
a 42 48 369
a 42 49 286
a 42 51 963
a 42 56 552
a 42 58 40
a 42 59 658
a 42 60 989
a 42 62 499
a 42 63 857
a 42 68 862
a 42 69 885
a 42 73 120
a 42 74 698
a 42 81 669
a 42 83 702
a 42 86 65
a 42 87 942
a 42 91 651
a 42 93 305
a 42 96 127
a 42 98 667
a 43 1 545
a 43 2 483
a 43 5 740
a 43 6 963
a 43 9 135
a 43 11 823
a 43 12 72
a 43 15 35
a 43 17 504
a 43 18 347
a 43 19 713
a 43 20 236
a 43 23 733
a 43 26 788
a 43 30 291
a 43 31 170
a 43 32 405
a 43 37 710
a 43 38 438
a 43 42 848
a 43 44 124
a 43 45 399
a 43 47 403
a 43 48 25
a 43 49 973
a 43 50 189
a 43 51 270
a 43 52 746
a 43 54 112
a 43 57 74
a 43 60 16
a 43 63 108
a 43 64 951
a 43 65 273
a 43 66 538
a 43 68 823
a 43 69 754
a 43 70 146
a 43 74 134
a 43 78 897
a 43 79 202
a 43 80 759
a 43 81 293
a 43 82 831
a 43 83 588
a 43 85 115
a 43 88 189
a 43 89 507
a 43 90 572
a 43 99 836
a 44 4 891
a 44 5 417
a 44 6 731
a 44 7 534
a 44 8 344
a 44 9 198
a 44 10 1
a 44 11 307
a 44 12 847
a 44 15 49
a 44 18 823
a 44 24 5
a 44 25 73
a 44 27 29
a 44 28 395
a 44 29 277
a 44 30 488
a 44 31 115
a 44 38 779
a 44 39 149
a 44 42 117
a 44 43 644
a 44 45 512
a 44 47 153
a 44 49 45
a 44 50 130
a 44 54 816
a 44 56 180
a 44 57 654
a 44 58 673
a 44 60 857
a 44 64 832
a 44 65 300
a 44 66 296
a 44 67 311
a 44 68 151
a 44 70 287
a 44 72 828
a 44 73 762
a 44 79 688
a 44 80 988
a 44 81 417
a 44 87 917
a 44 89 245
a 44 90 607
a 44 92 682
a 44 93 347
a 44 95 241
a 44 97 548
a 44 98 653
a 44 100 971
a 45 4 106
a 45 5 958
a 45 7 302
a 45 10 981
a 45 17 461
a 45 19 427
a 45 20 133
a 45 21 66
a 45 23 383
a 45 24 973
a 45 31 554
a 45 32 143
a 45 33 109
a 45 37 740
a 45 40 159
a 45 41 217
a 45 42 353
a 45 50 95
a 45 52 843
a 45 57 688
a 45 58 527
a 45 59 534
a 45 60 573
a 45 62 571
a 45 63 484
a 45 64 930
a 45 65 458
a 45 66 648
a 45 67 64
a 45 68 245
a 45 69 215
a 45 71 55
a 45 73 987
a 45 74 900
a 45 76 489
a 45 77 231
a 45 82 668
a 45 85 988
a 45 88 526
a 45 89 258
a 45 91 774
a 45 92 217
a 45 96 454
a 45 99 334
a 45 100 998
a 46 1 709
a 46 2 840
a 46 3 753
a 46 5 279
a 46 6 327
a 46 7 759
a 46 9 86
a 46 10 145
a 46 11 829
a 46 13 799
a 46 16 508
a 46 18 890
a 46 19 616
a 46 20 203
a 46 21 580
a 46 23 24
a 46 25 738
a 46 30 702
a 46 31 832
a 46 33 960
a 46 38 531
a 46 39 430
a 46 43 76
a 46 44 996
a 46 51 811
a 46 53 108
a 46 54 431
a 46 55 804
a 46 57 455
a 46 59 911
a 46 61 939
a 46 65 667
a 46 69 603
a 46 71 874
a 46 77 277
a 46 79 834
a 46 80 764
a 46 82 825
a 46 83 949
a 46 87 927
a 46 88 580
a 46 90 51
a 46 91 533
a 46 92 830
a 46 94 551
a 46 95 766
a 46 96 223
a 46 97 890
a 46 98 374
a 47 1 905
a 47 7 991
a 47 8 538
a 47 10 373
a 47 15 943
a 47 17 185
a 47 25 796
a 47 28 597
a 47 32 705
a 47 33 423
a 47 34 191
a 47 37 79
a 47 38 383
a 47 39 696
a 47 40 146
a 47 42 141
a 47 44 140
a 47 45 328
a 47 48 389
a 47 51 995
a 47 53 385
a 47 55 180
a 47 57 41
a 47 58 647
a 47 60 906
a 47 61 648
a 47 62 315
a 47 63 480
a 47 65 303
a 47 66 686
a 47 69 292
a 47 71 744
a 47 72 213
a 47 73 880
a 47 76 149
a 47 77 506
a 47 79 614
a 47 81 399
a 47 86 666
a 47 87 699
a 47 88 102
a 47 89 376
a 47 95 771
a 47 96 171
a 47 97 338
a 47 98 848
a 47 99 912
a 47 100 140
a 48 1 267
a 48 3 941
a 48 4 921
a 48 6 445
a 48 7 727
a 48 8 864
a 48 12 463
a 48 13 488
a 48 15 305
a 48 17 748
a 48 18 994
a 48 20 42
a 48 23 751
a 48 24 715
a 48 26 992
a 48 29 522
a 48 31 539
a 48 34 35
a 48 36 937
a 48 41 262
a 48 43 868
a 48 44 649
a 48 46 23
a 48 47 238
a 48 49 359
a 48 52 927
a 48 56 88
a 48 58 298
a 48 59 466
a 48 67 444
a 48 69 735
a 48 72 578
a 48 73 767
a 48 74 985
a 48 75 937
a 48 76 896
a 48 77 873
a 48 80 598
a 48 85 378
a 48 87 519
a 48 89 191
a 48 90 9
a 48 92 917
a 48 96 546
a 48 97 100
a 48 98 455
a 48 100 480
a 49 1 86
a 49 2 101
a 49 4 885
a 49 5 981
a 49 12 847
a 49 16 832
a 49 17 541
a 49 18 258
a 49 19 717
a 49 20 254
a 49 23 277
a 49 24 615
a 49 25 712
a 49 26 841
a 49 27 339
a 49 28 286
a 49 31 401
a 49 33 783
a 49 34 901
a 49 37 673
a 49 38 508
a 49 40 70
a 49 42 323
a 49 43 820
a 49 44 357
a 49 45 247
a 49 47 339
a 49 50 423
a 49 52 643
a 49 53 989
a 49 55 341
a 49 56 241
a 49 58 432
a 49 61 280
a 49 64 145
a 49 65 668
a 49 66 808
a 49 67 972
a 49 68 624
a 49 72 586
a 49 73 164
a 49 75 485
a 49 76 480
a 49 80 399
a 49 86 903
a 49 87 416
a 49 88 209
a 49 89 558
a 49 90 958
a 49 93 364
a 49 94 301
a 49 96 369
a 49 97 757
a 49 99 501
a 50 2 500
a 50 3 247
a 50 7 558
a 50 10 665
a 50 11 664
a 50 12 861
a 50 13 127
a 50 14 843
a 50 15 869
a 50 17 910
a 50 18 21
a 50 21 618
a 50 24 365
a 50 25 390
a 50 26 135
a 50 30 62
a 50 38 997
a 50 39 743
a 50 40 47
a 50 41 112
a 50 44 94
a 50 46 33
a 50 49 799
a 50 52 696
a 50 54 710
a 50 56 574
a 50 61 435
a 50 62 208
a 50 63 647
a 50 64 347
a 50 66 619
a 50 67 6
a 50 69 456
a 50 70 496
a 50 71 974
a 50 78 560
a 50 79 797
a 50 80 155
a 50 81 59
a 50 83 859
a 50 84 728
a 50 87 934
a 50 91 710
a 50 92 276
a 50 95 751
a 50 96 945
a 50 97 699
a 50 99 659
a 50 100 118
a 51 1 157
a 51 2 957
a 51 6 747
a 51 7 613
a 51 11 85
a 51 13 504
a 51 15 125
a 51 16 788
a 51 17 354
a 51 18 211
a 51 19 467
a 51 21 615
a 51 23 565
a 51 25 635
a 51 26 392
a 51 28 13
a 51 29 678
a 51 31 855
a 51 32 264
a 51 34 694
a 51 35 856
a 51 44 605
a 51 45 701
a 51 46 344
a 51 48 300
a 51 52 481
a 51 53 207
a 51 55 942
a 51 59 531
a 51 62 519
a 51 65 433
a 51 66 104
a 51 67 988
a 51 68 207
a 51 71 838
a 51 72 533
a 51 74 675
a 51 76 653
a 51 77 402
a 51 78 209
a 51 79 262
a 51 80 734
a 51 83 539
a 51 84 584
a 51 89 415
a 51 90 920
a 51 92 132
a 51 94 523
a 51 95 562
a 51 96 974
a 51 98 645
a 51 100 396
a 52 1 300
a 52 8 695
a 52 10 127
a 52 12 802
a 52 15 699
a 52 16 182
a 52 17 259
a 52 18 904
a 52 19 587
a 52 20 156
a 52 24 324
a 52 25 778
a 52 27 687
a 52 29 261
a 52 30 681
a 52 31 500
a 52 34 960
a 52 36 808
a 52 38 3
a 52 39 414
a 52 40 106
a 52 42 293
a 52 43 238
a 52 44 555
a 52 46 88
a 52 47 956
a 52 48 712
a 52 49 824
a 52 51 26
a 52 54 785
a 52 56 349
a 52 57 616
a 52 58 273
a 52 60 208
a 52 62 89
a 52 63 531
a 52 68 435
a 52 70 693
a 52 71 119
a 52 72 685
a 52 73 452
a 52 74 694
a 52 76 449
a 52 77 917
a 52 79 683
a 52 80 257
a 52 81 32
a 52 82 324
a 52 83 247
a 52 88 228
a 52 90 999
a 52 93 531
a 52 95 555
a 52 97 496
a 53 1 613
a 53 6 985
a 53 7 346
a 53 8 999
a 53 9 824
a 53 12 810
a 53 13 311
a 53 14 429
a 53 17 77
a 53 18 805
a 53 19 135
a 53 20 813
a 53 21 820
a 53 22 218
a 53 23 569
a 53 24 761
a 53 25 267
a 53 29 688
a 53 38 672
a 53 39 703
a 53 40 654
a 53 41 241
a 53 42 820
a 53 44 43
a 53 46 77
a 53 48 383
a 53 50 894
a 53 51 160
a 53 54 956
a 53 56 169
a 53 57 227
a 53 58 461
a 53 61 957
a 53 63 803
a 53 66 238
a 53 70 127
a 53 77 956
a 53 80 567
a 53 83 198
a 53 84 696
a 53 86 131
a 53 87 248
a 53 89 866
a 53 91 943
a 53 93 358
a 53 96 663
a 53 98 715
a 53 99 483
a 54 1 487
a 54 2 834
a 54 3 392
a 54 4 830
a 54 7 468
a 54 10 357
a 54 11 196
a 54 12 16
a 54 13 135
a 54 14 836
a 54 15 456
a 54 16 235
a 54 24 698
a 54 29 314
a 54 30 94
a 54 31 499
a 54 34 134
a 54 35 289
a 54 37 572
a 54 38 477
a 54 40 903
a 54 44 460
a 54 46 102
a 54 47 600
a 54 50 357
a 54 52 456
a 54 55 475
a 54 56 134
a 54 58 506
a 54 60 577
a 54 61 381
a 54 62 998
a 54 63 799
a 54 64 451
a 54 66 749
a 54 67 208
a 54 68 986
a 54 71 706
a 54 72 115
a 54 73 581
a 54 76 9
a 54 77 194
a 54 78 653
a 54 81 867
a 54 82 19
a 54 83 360
a 54 86 817
a 54 90 763
a 54 93 747
a 54 94 716
a 54 96 596
a 54 99 46
a 55 2 258
a 55 4 798
a 55 6 769
a 55 7 246
a 55 10 3
a 55 13 459
a 55 15 385
a 55 18 657
a 55 20 406
a 55 22 757
a 55 26 650
a 55 27 396
a 55 28 968
a 55 29 661
a 55 33 560
a 55 34 8
a 55 35 330
a 55 37 549
a 55 38 722
a 55 39 199
a 55 40 574
a 55 42 737
a 55 43 937
a 55 45 923
a 55 46 194
a 55 47 976
a 55 50 861
a 55 51 968
a 55 54 468
a 55 56 873
a 55 57 606
a 55 58 91
a 55 63 710
a 55 67 435
a 55 68 822
a 55 69 571
a 55 78 883
a 55 82 332
a 55 84 879
a 55 85 490
a 55 87 2
a 55 88 446
a 55 89 906
a 55 92 212
a 55 95 702
a 55 96 427
a 55 97 631
a 55 99 891
a 56 1 932
a 56 6 614
a 56 8 613
a 56 9 994
a 56 10 35
a 56 11 125
a 56 14 844
a 56 15 368
a 56 17 355
a 56 19 524
a 56 23 619
a 56 32 819
a 56 33 829
a 56 34 564
a 56 38 550
a 56 41 628
a 56 43 727
a 56 45 611
a 56 48 59
a 56 51 103
a 56 52 793
a 56 54 111
a 56 59 490
a 56 60 968
a 56 62 416
a 56 64 12
a 56 65 670
a 56 66 564
a 56 67 875
a 56 71 876
a 56 72 698
a 56 74 902
a 56 78 351
a 56 79 570
a 56 80 140
a 56 82 46
a 56 84 884
a 56 85 791
a 56 86 345
a 56 88 641
a 56 89 699
a 56 90 98
a 56 92 525
a 56 94 274
a 56 98 54
a 56 99 666
a 57 1 645
a 57 2 893
a 57 3 244
a 57 6 262
a 57 11 783
a 57 13 188
a 57 14 583
a 57 15 161
a 57 16 371
a 57 19 59
a 57 20 923
a 57 24 300
a 57 28 462
a 57 30 504
a 57 31 78
a 57 34 912
a 57 36 21
a 57 40 252
a 57 43 114
a 57 44 462
a 57 52 132
a 57 53 661
a 57 54 767
a 57 56 834
a 57 59 642
a 57 61 628
a 57 62 31
a 57 63 128
a 57 64 114
a 57 65 850
a 57 67 337
a 57 68 595
a 57 70 236
a 57 71 982
a 57 74 646
a 57 76 780
a 57 82 231
a 57 83 394
a 57 85 342
a 57 87 515
a 57 88 933
a 57 90 386
a 57 91 724
a 57 92 999
a 57 94 425
a 57 96 121
a 57 97 310
a 57 98 397
a 58 1 853
a 58 3 342
a 58 5 671
a 58 6 75
a 58 7 0
a 58 8 719
a 58 9 169
a 58 10 448
a 58 17 434
a 58 18 970
a 58 21 807
a 58 23 121
a 58 27 150
a 58 29 306
a 58 31 265
a 58 32 307
a 58 33 10
a 58 34 345
a 58 35 181
a 58 37 966
a 58 38 438
a 58 42 582
a 58 43 663
a 58 45 700
a 58 46 528
a 58 49 569
a 58 51 433
a 58 52 860
a 58 56 481
a 58 57 693
a 58 59 367
a 58 60 248
a 58 64 847
a 58 66 772
a 58 67 134
a 58 68 944
a 58 72 115
a 58 73 829
a 58 74 449
a 58 77 139
a 58 79 157
a 58 81 45
a 58 84 825
a 58 85 877
a 58 87 540
a 58 89 617
a 58 91 743
a 58 92 577
a 58 94 304
a 58 95 549
a 58 96 338
a 58 97 678
a 58 98 665
a 59 2 221
a 59 3 982
a 59 4 227
a 59 5 580
a 59 6 834
a 59 7 451
a 59 8 892
a 59 9 994
a 59 10 835
a 59 11 579
a 59 12 289
a 59 15 122
a 59 16 767
a 59 18 47
a 59 20 792
a 59 22 219
a 59 23 377
a 59 24 509
a 59 27 180
a 59 30 400
a 59 31 86
a 59 33 820
a 59 34 909
a 59 35 250
a 59 36 552
a 59 37 125
a 59 39 756
a 59 43 690
a 59 44 443
a 59 45 970
a 59 46 462
a 59 50 464
a 59 51 209
a 59 52 956
a 59 54 827
a 59 55 922
a 59 56 257
a 59 57 922
a 59 58 858
a 59 63 625
a 59 66 546
a 59 67 964
a 59 68 552
a 59 70 256
a 59 71 76
a 59 72 430
a 59 73 903
a 59 79 390
a 59 82 577
a 59 83 167
a 59 85 601
a 59 87 252
a 59 89 361
a 59 90 656
a 59 91 964
a 59 92 92
a 59 93 212
a 59 99 597
a 59 100 462
a 60 2 67
a 60 3 434
a 60 5 115
a 60 6 939
a 60 8 72
a 60 10 900
a 60 11 684
a 60 14 367
a 60 18 755
a 60 19 365
a 60 20 852
a 60 23 542
a 60 24 712
a 60 25 359
a 60 33 901
a 60 37 674
a 60 38 757
a 60 39 612
a 60 40 310
a 60 42 548
a 60 43 870
a 60 45 285
a 60 51 680
a 60 52 248
a 60 54 549
a 60 55 164
a 60 64 170
a 60 65 446
a 60 72 749
a 60 73 12
a 60 79 527
a 60 82 430
a 60 83 122
a 60 84 598
a 60 88 404
a 60 89 284
a 60 91 796
a 60 94 392
a 60 96 922
a 60 97 814
a 60 98 138
a 61 1 856
a 61 2 471
a 61 3 832
a 61 5 199
a 61 10 405
a 61 12 799
a 61 13 651
a 61 14 653
a 61 15 530
a 61 16 491
a 61 18 223
a 61 23 53
a 61 25 325
a 61 29 305
a 61 30 993
a 61 31 174
a 61 34 91
a 61 35 532
a 61 37 807
a 61 38 683
a 61 39 327
a 61 41 713
a 61 42 574
a 61 49 580
a 61 51 394
a 61 54 456
a 61 55 558
a 61 56 904
a 61 59 811
a 61 60 134
a 61 63 391
a 61 64 174
a 61 67 237
a 61 71 313
a 61 72 828
a 61 74 968
a 61 75 889
a 61 79 889
a 61 82 777
a 61 83 184
a 61 85 224
a 61 86 928
a 61 87 122
a 61 88 901
a 61 89 372
a 61 92 304
a 61 94 625
a 61 95 506
a 61 96 475
a 61 98 880
a 61 100 742
a 62 4 541
a 62 6 560
a 62 8 40
a 62 10 654
a 62 12 105
a 62 13 247
a 62 14 338
a 62 15 222
a 62 16 122
a 62 18 840
a 62 21 980
a 62 22 965
a 62 28 933
a 62 29 144
a 62 30 180
a 62 38 245
a 62 39 72
a 62 42 634
a 62 45 621
a 62 47 9
a 62 49 54
a 62 50 650
a 62 51 441
a 62 54 254
a 62 55 409
a 62 59 83
a 62 65 131
a 62 67 518
a 62 68 120
a 62 70 804
a 62 71 397
a 62 75 550
a 62 76 270
a 62 77 163
a 62 78 187
a 62 79 370
a 62 83 257
a 62 87 992
a 62 88 868
a 62 91 99
a 62 92 925
a 62 93 754
a 62 95 344
a 62 96 648
a 62 98 535
a 62 99 339
a 63 1 182
a 63 2 71
a 63 3 364
a 63 4 706
a 63 5 411
a 63 6 911
a 63 7 561
a 63 8 592
a 63 9 959
a 63 10 88
a 63 11 719
a 63 15 811
a 63 16 684
a 63 19 731
a 63 20 429
a 63 23 469
a 63 24 259
a 63 25 294
a 63 28 960
a 63 29 398
a 63 31 96
a 63 32 110
a 63 33 950
a 63 35 935
a 63 36 440
a 63 37 103
a 63 38 203
a 63 39 925
a 63 40 528
a 63 42 586
a 63 47 678
a 63 49 225
a 63 51 727
a 63 53 873
a 63 54 689
a 63 56 241
a 63 59 951
a 63 60 890
a 63 61 604
a 63 62 911
a 63 64 391
a 63 65 928
a 63 66 15
a 63 69 401
a 63 70 847
a 63 78 615
a 63 79 697
a 63 81 296
a 63 83 74
a 63 84 772
a 63 86 839
a 63 87 539
a 63 89 739
a 63 91 133
a 63 92 928
a 63 93 66
a 63 94 192
a 64 1 693
a 64 3 966
a 64 4 544
a 64 6 10
a 64 8 180
a 64 11 318
a 64 14 499
a 64 19 756
a 64 20 555
a 64 23 844
a 64 24 643
a 64 27 643
a 64 29 410
a 64 30 953
a 64 32 675
a 64 33 200
a 64 34 127
a 64 36 941
a 64 38 11
a 64 40 106
a 64 41 509
a 64 42 646
a 64 43 821
a 64 45 422
a 64 46 710
a 64 51 415
a 64 53 209
a 64 54 218
a 64 55 826
a 64 58 326
a 64 62 317
a 64 65 977
a 64 67 284
a 64 68 686
a 64 70 510
a 64 73 249
a 64 75 679
a 64 76 47
a 64 77 203
a 64 81 599
a 64 82 897
a 64 83 478
a 64 86 271
a 64 87 433
a 64 88 132
a 64 89 274
a 64 93 450
a 64 95 428
a 64 97 762
a 64 99 883
a 64 100 421
a 65 1 180
a 65 3 271
a 65 9 383
a 65 11 407
a 65 12 839
a 65 15 321
a 65 16 231
a 65 17 619
a 65 18 621
a 65 19 497
a 65 21 555
a 65 25 739
a 65 27 837
a 65 28 791
a 65 29 904
a 65 31 544
a 65 34 649
a 65 35 960
a 65 38 675
a 65 44 814
a 65 46 319
a 65 49 27
a 65 51 625
a 65 59 450
a 65 60 122
a 65 62 436
a 65 67 112
a 65 68 725
a 65 69 656
a 65 73 228
a 65 77 14
a 65 79 644
a 65 84 601
a 65 85 320
a 65 86 943
a 65 88 137
a 65 93 613
a 65 95 890
a 65 97 24
a 65 99 536
a 65 100 751
a 66 1 784
a 66 3 474
a 66 4 581
a 66 6 741
a 66 7 171
a 66 10 125
a 66 12 265
a 66 13 361
a 66 14 428
a 66 16 991
a 66 18 784
a 66 20 709
a 66 22 645
a 66 24 506
a 66 25 837
a 66 28 508
a 66 29 635
a 66 30 242
a 66 34 480
a 66 35 326
a 66 36 438
a 66 37 212
a 66 38 159
a 66 40 297
a 66 41 654
a 66 44 688
a 66 46 299
a 66 48 373
a 66 50 117
a 66 51 339
a 66 52 975
a 66 55 60
a 66 56 742
a 66 57 127
a 66 58 266
a 66 60 881
a 66 67 962
a 66 70 975
a 66 76 646
a 66 80 252
a 66 83 358
a 66 84 924
a 66 85 479
a 66 86 303
a 66 88 665
a 66 90 466
a 66 91 388
a 66 92 787
a 66 95 526
a 66 96 823
a 66 97 560
a 66 98 743
a 66 99 73
a 67 1 637
a 67 4 918
a 67 6 89
a 67 7 491
a 67 12 430
a 67 14 723
a 67 17 327
a 67 18 941
a 67 19 230
a 67 20 753
a 67 21 981
a 67 24 711
a 67 35 442
a 67 36 736
a 67 37 454
a 67 38 196
a 67 39 777
a 67 40 949
a 67 43 947
a 67 44 919
a 67 45 247
a 67 49 454
a 67 53 416
a 67 54 511
a 67 56 855
a 67 63 496
a 67 66 303
a 67 68 318
a 67 69 639
a 67 70 535
a 67 72 443
a 67 74 709
a 67 76 166
a 67 77 98
a 67 78 226
a 67 81 358
a 67 83 691
a 67 85 754
a 67 86 230
a 67 88 400
a 67 89 908
a 67 91 190
a 67 94 207
a 67 96 261
a 67 99 900
a 67 100 151
a 68 3 265
a 68 4 996
a 68 6 519
a 68 9 965
a 68 10 0
a 68 13 298
a 68 14 621
a 68 17 139
a 68 18 579
a 68 20 67
a 68 22 956
a 68 24 787
a 68 25 6
a 68 26 509
a 68 28 10
a 68 30 98
a 68 35 252
a 68 39 592
a 68 51 20
a 68 54 620
a 68 59 315
a 68 61 223
a 68 64 715
a 68 66 965
a 68 67 306
a 68 75 355
a 68 80 279
a 68 82 479
a 68 83 924
a 68 84 789
a 68 85 495
a 68 86 944
a 68 87 909
a 68 89 953
a 68 90 448
a 68 91 946
a 68 93 965
a 68 95 939
a 68 98 889
a 68 100 105
a 69 3 708
a 69 4 282
a 69 5 246
a 69 7 614
a 69 10 685
a 69 11 715
a 69 15 636
a 69 18 543
a 69 21 104
a 69 24 646
a 69 27 332
a 69 30 912
a 69 31 962
a 69 33 862
a 69 36 159
a 69 38 114
a 69 39 87
a 69 41 124
a 69 45 897
a 69 49 183
a 69 50 791
a 69 51 109
a 69 52 72
a 69 53 181
a 69 54 632
a 69 56 475
a 69 57 125
a 69 59 416
a 69 60 564
a 69 61 667
a 69 62 370
a 69 65 982
a 69 66 29
a 69 67 967
a 69 70 89
a 69 71 504
a 69 73 828
a 69 77 70
a 69 78 97
a 69 79 756
a 69 83 526
a 69 86 698
a 69 87 3
a 69 89 912
a 69 90 194
a 69 91 322
a 69 92 646
a 69 93 736
a 69 96 488
a 69 97 105
a 69 100 936
a 70 1 302
a 70 4 847
a 70 7 842
a 70 8 631
a 70 9 378
a 70 11 22
a 70 12 9
a 70 13 605
a 70 15 105
a 70 16 138
a 70 18 985
a 70 20 460
a 70 21 300
a 70 22 374
a 70 26 471
a 70 27 23
a 70 28 988
a 70 30 529
a 70 31 303
a 70 34 208
a 70 37 883
a 70 39 899
a 70 41 322
a 70 42 755
a 70 43 80
a 70 45 658
a 70 47 374
a 70 48 632
a 70 54 527
a 70 55 329
a 70 56 47
a 70 58 744
a 70 60 309
a 70 63 714
a 70 64 721
a 70 67 735
a 70 68 990
a 70 69 102
a 70 71 244
a 70 72 774
a 70 74 727
a 70 75 225
a 70 77 574
a 70 78 18
a 70 80 150
a 70 83 585
a 70 84 994
a 70 88 5
a 70 90 495
a 70 91 588
a 70 93 379
a 70 98 773
a 70 99 487
a 71 6 862
a 71 8 698
a 71 9 358
a 71 11 167
a 71 12 328
a 71 13 449
a 71 14 785
a 71 15 241
a 71 16 458
a 71 17 790
a 71 21 303
a 71 22 931
a 71 32 437
a 71 33 537
a 71 34 907
a 71 36 171
a 71 37 9
a 71 38 771
a 71 41 172
a 71 42 993
a 71 43 624
a 71 44 501
a 71 48 818
a 71 49 621
a 71 53 87
a 71 54 389
a 71 55 244
a 71 59 49
a 71 60 717
a 71 64 767
a 71 70 259
a 71 72 804
a 71 73 9
a 71 75 746
a 71 76 845
a 71 77 731
a 71 79 723
a 71 80 508
a 71 82 56
a 71 84 863
a 71 92 180
a 71 95 412
a 71 96 976
a 71 98 469
a 72 2 665
a 72 3 628
a 72 8 681
a 72 9 315
a 72 13 826
a 72 16 895
a 72 18 413
a 72 21 371
a 72 22 237
a 72 25 296
a 72 30 107
a 72 32 892
a 72 35 713
a 72 38 82
a 72 39 146
a 72 40 180
a 72 41 674
a 72 45 847
a 72 48 700
a 72 51 950
a 72 54 81
a 72 57 890
a 72 58 342
a 72 60 731
a 72 62 7
a 72 64 997
a 72 66 251
a 72 69 540
a 72 74 697
a 72 77 185
a 72 78 336
a 72 80 127
a 72 83 376
a 72 85 781
a 72 88 226
a 72 93 573
a 72 94 187
a 72 95 593
a 72 98 533
a 72 99 510
a 73 3 707
a 73 8 971
a 73 9 49
a 73 10 321
a 73 11 108
a 73 12 75
a 73 13 441
a 73 14 79
a 73 15 626
a 73 16 583
a 73 21 238
a 73 22 995
a 73 23 633
a 73 27 692
a 73 28 700
a 73 29 675
a 73 32 340
a 73 33 494
a 73 34 269
a 73 35 418
a 73 40 796
a 73 41 108
a 73 45 143
a 73 46 974
a 73 50 14
a 73 51 16
a 73 52 107
a 73 53 955
a 73 54 876
a 73 55 871
a 73 59 422
a 73 60 655
a 73 63 539
a 73 64 850
a 73 72 472
a 73 74 500
a 73 75 639
a 73 78 373
a 73 80 675
a 73 83 771
a 73 84 591
a 73 85 111
a 73 86 709
a 73 88 277
a 73 90 39
a 73 91 517
a 73 92 916
a 73 93 109
a 73 94 234
a 74 1 863
a 74 4 320
a 74 8 420
a 74 9 627
a 74 10 554
a 74 13 260
a 74 14 526
a 74 15 529
a 74 18 27
a 74 19 396
a 74 22 145
a 74 23 936
a 74 29 813
a 74 30 222
a 74 33 388
a 74 34 650
a 74 35 543
a 74 36 425
a 74 39 946
a 74 42 396
a 74 46 836
a 74 47 713
a 74 48 922
a 74 49 302
a 74 51 324
a 74 53 283
a 74 56 401
a 74 58 318
a 74 60 309
a 74 62 630
a 74 63 418
a 74 64 522
a 74 65 927
a 74 66 342
a 74 67 21
a 74 70 568
a 74 71 960
a 74 73 607
a 74 76 854
a 74 77 71
a 74 78 794
a 74 81 607
a 74 82 991
a 74 83 896
a 74 85 846
a 74 86 332
a 74 88 197
a 74 91 775
a 74 93 536
a 74 96 489
a 74 97 185
a 74 98 285
a 74 100 359
a 75 1 575
a 75 2 77
a 75 3 778
a 75 4 129
a 75 9 875
a 75 10 265
a 75 11 504
a 75 12 541
a 75 13 165
a 75 14 697
a 75 15 987
a 75 17 89
a 75 19 68
a 75 22 859
a 75 23 156
a 75 24 976
a 75 25 637
a 75 26 774
a 75 28 374
a 75 30 670
a 75 31 221
a 75 32 319
a 75 33 434
a 75 35 780
a 75 36 518
a 75 39 597
a 75 42 710
a 75 43 271
a 75 45 199
a 75 48 859
a 75 50 516
a 75 51 460
a 75 52 305
a 75 55 41
a 75 56 112
a 75 59 749
a 75 60 464
a 75 61 150
a 75 62 117
a 75 66 654
a 75 68 658
a 75 73 957
a 75 74 500
a 75 77 477
a 75 79 849
a 75 81 821
a 75 84 790
a 75 86 9
a 75 88 715
a 75 90 4
a 75 92 463
a 75 94 117
a 75 96 564
a 75 97 75
a 75 98 135
a 76 2 291
a 76 3 194
a 76 8 711
a 76 9 24
a 76 14 326
a 76 17 747
a 76 18 862
a 76 20 933
a 76 21 516
a 76 24 784
a 76 26 906
a 76 27 924
a 76 30 139
a 76 31 612
a 76 33 916
a 76 34 601
a 76 35 7
a 76 36 653
a 76 37 919
a 76 38 151
a 76 40 42
a 76 41 352
a 76 43 260
a 76 46 925
a 76 48 369
a 76 50 200
a 76 54 512
a 76 57 751
a 76 58 32
a 76 59 573
a 76 61 614
a 76 63 636
a 76 64 284
a 76 65 848
a 76 66 910
a 76 67 355
a 76 68 336
a 76 73 100
a 76 77 17
a 76 80 191
a 76 81 344
a 76 83 270
a 76 85 406
a 76 86 888
a 76 87 979
a 76 88 875
a 76 92 385
a 76 93 992
a 76 94 717
a 76 95 657
a 77 1 867
a 77 2 611
a 77 3 751
a 77 4 494
a 77 5 291
a 77 6 401
a 77 8 857
a 77 9 105
a 77 10 83
a 77 12 847
a 77 17 720
a 77 18 726
a 77 20 189
a 77 21 293
a 77 23 5
a 77 24 740
a 77 27 154
a 77 28 977
a 77 29 206
a 77 30 814
a 77 31 375
a 77 32 12
a 77 33 599
a 77 37 811
a 77 38 552
a 77 40 676
a 77 41 888
a 77 43 590
a 77 48 301
a 77 49 694
a 77 50 937
a 77 54 736
a 77 55 287
a 77 58 601
a 77 63 304
a 77 65 213
a 77 67 17
a 77 69 768
a 77 70 738
a 77 75 355
a 77 76 464
a 77 79 920
a 77 80 653
a 77 81 640
a 77 82 661
a 77 85 778
a 77 87 331
a 77 89 193
a 77 90 573
a 77 94 734
a 77 100 72
a 78 2 932
a 78 5 998
a 78 6 114
a 78 7 245
a 78 8 47
a 78 9 448
a 78 10 235
a 78 11 366
a 78 12 637
a 78 16 827
a 78 18 489
a 78 19 51
a 78 22 941
a 78 24 133
a 78 28 497
a 78 30 229
a 78 31 934
a 78 32 376
a 78 34 383
a 78 36 733
a 78 37 342
a 78 38 250
a 78 43 890
a 78 44 279
a 78 47 653
a 78 49 890
a 78 50 832
a 78 53 712
a 78 54 100
a 78 55 627
a 78 59 524
a 78 60 368
a 78 61 628
a 78 62 670
a 78 63 523
a 78 65 103
a 78 66 343
a 78 68 776
a 78 70 739
a 78 75 29
a 78 79 913
a 78 80 831
a 78 81 831
a 78 82 667
a 78 87 576
a 78 88 230
a 78 91 107
a 78 92 959
a 78 95 878
a 78 96 829
a 78 99 522
a 79 3 482
a 79 4 991
a 79 7 413
a 79 8 486
a 79 12 237
a 79 13 851
a 79 14 778
a 79 17 887
a 79 19 983
a 79 22 42
a 79 24 344
a 79 25 703
a 79 26 862
a 79 27 136
a 79 29 800
a 79 30 666
a 79 31 273
a 79 33 632
a 79 34 299
a 79 35 74
a 79 36 15
a 79 37 705
a 79 39 917
a 79 40 278
a 79 41 83
a 79 42 77
a 79 43 851
a 79 44 940
a 79 49 680
a 79 51 193
a 79 53 897
a 79 54 3
a 79 61 38
a 79 63 680
a 79 64 172
a 79 65 519
a 79 67 838
a 79 68 359
a 79 70 740
a 79 72 616
a 79 73 877
a 79 74 806
a 79 76 618
a 79 77 659
a 79 81 486
a 79 83 48
a 79 84 415
a 79 85 428
a 79 87 709
a 79 89 564
a 79 90 6
a 79 93 613
a 79 94 939
a 80 3 761
a 80 4 136
a 80 5 446
a 80 7 356
a 80 9 123
a 80 10 231
a 80 12 969
a 80 14 820
a 80 17 900
a 80 18 811
a 80 19 178
a 80 20 588
a 80 23 257
a 80 26 613
a 80 27 629
a 80 28 424
a 80 29 309
a 80 31 162
a 80 34 124
a 80 35 927
a 80 38 4
a 80 39 25
a 80 41 938
a 80 42 838
a 80 44 430
a 80 46 392
a 80 47 664
a 80 49 407
a 80 52 746
a 80 53 38
a 80 57 965
a 80 59 18
a 80 60 434
a 80 63 202
a 80 66 735
a 80 67 745
a 80 71 472
a 80 72 770
a 80 73 541
a 80 76 551
a 80 77 379
a 80 83 668
a 80 88 659
a 80 89 605
a 80 90 610
a 80 91 933
a 80 100 475
a 81 1 626
a 81 2 660
a 81 3 555
a 81 4 637
a 81 7 53
a 81 13 93
a 81 14 926
a 81 17 583
a 81 20 620
a 81 22 727
a 81 27 388
a 81 28 464
a 81 29 210
a 81 30 14
a 81 31 844
a 81 32 496
a 81 33 488
a 81 34 481
a 81 35 148
a 81 36 477
a 81 37 456
a 81 38 443
a 81 39 786
a 81 41 436
a 81 42 293
a 81 45 486
a 81 46 944
a 81 47 973
a 81 52 342
a 81 53 240
a 81 55 515
a 81 57 810
a 81 62 392
a 81 63 491
a 81 66 503
a 81 67 488
a 81 69 467
a 81 70 422
a 81 71 763
a 81 72 892
a 81 73 292
a 81 77 844
a 81 79 116
a 81 82 932
a 81 84 694
a 81 85 863
a 81 88 600
a 81 89 996
a 81 92 575
a 81 93 590
a 81 96 973
a 81 99 130
a 81 100 6
a 82 1 485
a 82 3 952
a 82 6 904
a 82 8 285
a 82 9 451
a 82 12 42
a 82 16 248
a 82 17 392
a 82 18 9
a 82 23 16
a 82 25 735
a 82 26 104
a 82 28 502
a 82 31 773
a 82 32 71
a 82 33 787
a 82 34 216
a 82 37 656
a 82 39 505
a 82 42 228
a 82 45 40
a 82 46 302
a 82 48 478
a 82 49 332
a 82 53 667
a 82 54 22
a 82 55 997
a 82 56 585
a 82 58 58
a 82 60 533
a 82 63 506
a 82 64 118
a 82 70 535
a 82 71 742
a 82 72 988
a 82 73 540
a 82 76 665
a 82 79 21
a 82 80 307
a 82 83 174
a 82 88 587
a 82 90 559
a 82 91 496
a 82 92 777
a 82 96 60
a 82 97 357
a 82 98 381
a 82 99 404
a 83 2 535
a 83 4 201
a 83 6 837
a 83 7 764
a 83 8 361
a 83 9 580
a 83 13 639
a 83 14 301
a 83 17 485
a 83 18 97
a 83 21 164
a 83 22 526
a 83 23 280
a 83 25 60
a 83 28 416
a 83 30 187
a 83 35 109
a 83 40 614
a 83 42 471
a 83 45 538
a 83 50 440
a 83 51 645
a 83 55 88
a 83 62 427
a 83 64 683
a 83 65 984
a 83 68 695
a 83 69 325
a 83 70 33
a 83 72 653
a 83 74 116
a 83 76 493
a 83 77 149
a 83 80 980
a 83 81 212
a 83 82 516
a 83 86 997
a 83 89 468
a 83 91 710
a 83 92 72
a 83 93 389
a 83 94 31
a 83 95 373
a 83 99 716
a 83 100 852
a 84 3 420
a 84 6 680
a 84 7 307
a 84 10 214
a 84 11 600
a 84 12 232
a 84 16 66
a 84 17 6
a 84 21 458
a 84 22 855
a 84 26 926
a 84 30 213
a 84 31 712
a 84 32 489
a 84 33 572
a 84 36 254
a 84 38 878
a 84 39 800
a 84 42 934
a 84 46 82
a 84 47 154
a 84 49 861
a 84 50 189
a 84 52 290
a 84 53 96
a 84 54 294
a 84 55 729
a 84 58 136
a 84 59 614
a 84 62 289
a 84 65 188
a 84 66 229
a 84 67 719
a 84 69 402
a 84 73 453
a 84 75 793
a 84 76 217
a 84 78 315
a 84 79 394
a 84 83 29
a 84 85 431
a 84 86 257
a 84 87 146
a 84 89 682
a 84 93 41
a 84 95 294
a 84 96 590
a 84 98 753
a 84 99 7
a 85 2 266
a 85 3 110
a 85 6 113
a 85 7 386
a 85 8 562
a 85 11 571
a 85 12 478
a 85 13 733
a 85 14 456
a 85 17 944
a 85 18 975
a 85 19 232
a 85 20 306
a 85 22 26
a 85 23 925
a 85 25 212
a 85 27 840
a 85 28 899
a 85 29 900
a 85 33 702
a 85 35 721
a 85 38 859
a 85 39 970
a 85 42 640
a 85 43 569
a 85 44 722
a 85 46 468
a 85 48 503
a 85 51 907
a 85 52 770
a 85 54 15
a 85 56 730
a 85 59 824
a 85 64 512
a 85 65 52
a 85 68 205
a 85 70 648
a 85 71 352
a 85 73 16
a 85 74 357
a 85 75 414
a 85 80 787
a 85 81 578
a 85 82 602
a 85 83 458
a 85 84 759
a 85 86 21
a 85 88 626
a 85 89 666
a 85 90 261
a 85 91 934
a 85 92 518
a 85 98 199
a 85 100 577
a 86 3 299
a 86 8 122
a 86 10 767
a 86 13 69
a 86 14 371
a 86 15 215
a 86 16 494
a 86 17 733
a 86 24 90
a 86 25 929
a 86 27 976
a 86 28 2
a 86 32 6
a 86 34 75
a 86 35 786
a 86 37 869
a 86 39 632
a 86 42 584
a 86 43 589
a 86 44 244
a 86 45 736
a 86 46 402
a 86 47 196
a 86 48 468
a 86 49 517
a 86 51 522
a 86 52 359
a 86 53 683
a 86 55 44
a 86 56 162
a 86 57 176
a 86 58 751
a 86 65 562
a 86 68 667
a 86 70 521
a 86 72 18
a 86 74 405
a 86 75 322
a 86 79 54
a 86 80 473
a 86 81 146
a 86 82 879
a 86 83 359
a 86 84 995
a 86 85 658
a 86 87 142
a 86 88 450
a 86 89 972
a 86 91 458
a 86 99 131
a 87 2 193
a 87 4 513
a 87 6 712
a 87 8 217
a 87 9 278
a 87 10 1
a 87 11 556
a 87 12 965
a 87 15 989
a 87 17 194
a 87 19 262
a 87 23 210
a 87 25 914
a 87 26 419
a 87 27 406
a 87 30 779
a 87 31 79
a 87 36 492
a 87 37 747
a 87 38 907
a 87 40 308
a 87 41 263
a 87 42 262
a 87 46 895
a 87 48 742
a 87 52 246
a 87 53 142
a 87 54 934
a 87 56 769
a 87 59 944
a 87 62 539
a 87 63 33
a 87 64 442
a 87 65 618
a 87 67 446
a 87 70 526
a 87 71 393
a 87 73 976
a 87 75 621
a 87 77 816
a 87 80 541
a 87 82 641
a 87 83 340
a 87 84 375
a 87 85 541
a 87 86 112
a 87 90 587
a 87 91 737
a 87 92 253
a 87 95 24
a 87 97 704
a 87 98 413
a 87 99 614
a 88 4 82
a 88 5 965
a 88 6 17
a 88 7 922
a 88 10 213
a 88 12 773
a 88 13 378
a 88 14 786
a 88 16 21
a 88 19 525
a 88 20 135
a 88 21 735
a 88 22 258
a 88 23 227
a 88 24 25
a 88 27 713
a 88 28 660
a 88 29 783
a 88 30 761
a 88 31 210
a 88 33 732
a 88 34 367
a 88 35 641
a 88 37 203
a 88 40 874
a 88 44 257
a 88 45 392
a 88 49 696
a 88 50 258
a 88 51 1
a 88 52 861
a 88 53 141
a 88 54 640
a 88 56 850
a 88 57 665
a 88 64 322
a 88 65 72
a 88 67 939
a 88 69 800
a 88 70 155
a 88 72 31
a 88 74 805
a 88 75 956
a 88 77 950
a 88 78 597
a 88 83 268
a 88 90 230
a 88 91 81
a 88 93 273
a 88 95 973
a 88 96 452
a 88 98 253
a 88 100 19
a 89 1 603
a 89 4 711
a 89 7 163
a 89 8 499
a 89 10 105
a 89 12 534
a 89 13 811
a 89 16 682
a 89 18 381
a 89 20 99
a 89 21 332
a 89 23 287
a 89 27 604
a 89 30 228
a 89 33 569
a 89 34 43
a 89 37 993
a 89 38 347
a 89 41 352
a 89 43 198
a 89 44 164
a 89 45 628
a 89 47 942
a 89 48 765
a 89 49 438
a 89 50 719
a 89 53 216
a 89 55 942
a 89 59 532
a 89 60 107
a 89 65 370
a 89 66 641
a 89 69 66
a 89 70 648
a 89 71 649
a 89 72 737
a 89 73 797
a 89 75 762
a 89 76 238
a 89 78 218
a 89 79 345
a 89 82 117
a 89 83 248
a 89 86 373
a 89 88 743
a 89 91 225
a 89 92 463
a 89 93 391
a 89 95 247
a 89 98 844
a 89 99 219
a 90 3 625
a 90 10 632
a 90 12 286
a 90 13 63
a 90 14 911
a 90 15 142
a 90 16 403
a 90 18 760
a 90 21 28
a 90 22 503
a 90 23 449
a 90 25 472
a 90 27 776
a 90 28 97
a 90 30 126
a 90 31 879
a 90 33 37
a 90 36 865
a 90 37 772
a 90 39 76
a 90 41 406
a 90 43 618
a 90 44 232
a 90 46 676
a 90 47 539
a 90 48 310
a 90 52 159
a 90 54 953
a 90 56 692
a 90 57 117
a 90 59 370
a 90 65 533
a 90 71 16
a 90 73 142
a 90 77 996
a 90 78 467
a 90 79 948
a 90 80 959
a 90 81 327
a 90 82 33
a 90 83 752
a 90 84 717
a 90 85 439
a 90 91 413
a 90 96 364
a 90 97 97
a 90 99 461
a 90 100 257
a 91 1 573
a 91 2 221
a 91 3 820
a 91 4 536
a 91 5 983
a 91 7 6
a 91 11 115
a 91 13 360
a 91 16 884
a 91 17 236
a 91 18 923
a 91 19 235
a 91 21 313
a 91 23 522
a 91 24 715
a 91 26 28
a 91 27 210
a 91 31 872
a 91 36 103
a 91 37 81
a 91 38 940
a 91 39 687
a 91 40 880
a 91 45 466
a 91 46 903
a 91 47 790
a 91 48 733
a 91 49 775
a 91 50 22
a 91 52 122
a 91 54 841
a 91 55 646
a 91 58 630
a 91 59 991
a 91 60 283
a 91 62 668
a 91 65 848
a 91 67 977
a 91 68 905
a 91 70 782
a 91 75 335
a 91 76 166
a 91 77 13
a 91 78 786
a 91 79 892
a 91 81 688
a 91 84 709
a 91 85 569
a 91 87 256
a 91 88 456
a 91 90 429
a 91 92 730
a 91 93 706
a 91 95 946
a 91 96 560
a 91 97 772
a 91 99 944
a 91 100 142
a 92 2 393
a 92 4 762
a 92 8 166
a 92 9 326
a 92 13 31
a 92 14 859
a 92 17 220
a 92 18 812
a 92 19 147
a 92 28 398
a 92 29 81
a 92 30 977
a 92 32 557
a 92 33 904
a 92 35 847
a 92 37 931
a 92 43 165
a 92 44 273
a 92 45 706
a 92 46 479
a 92 47 216
a 92 49 30
a 92 50 498
a 92 52 292
a 92 54 248
a 92 55 110
a 92 56 144
a 92 57 529
a 92 58 18
a 92 60 822
a 92 63 248
a 92 64 293
a 92 66 421
a 92 67 208
a 92 68 409
a 92 69 229
a 92 72 328
a 92 75 585
a 92 81 282
a 92 82 145
a 92 86 669
a 92 88 682
a 92 89 117
a 92 93 320
a 92 97 245
a 92 99 793
a 92 100 307
a 93 1 534
a 93 2 619
a 93 4 330
a 93 7 647
a 93 8 174
a 93 10 937
a 93 11 752
a 93 12 984
a 93 23 341
a 93 24 55
a 93 25 515
a 93 28 119
a 93 29 657
a 93 31 842
a 93 32 179
a 93 34 695
a 93 37 60
a 93 39 654
a 93 40 624
a 93 41 174
a 93 47 855
a 93 48 295
a 93 50 625
a 93 51 469
a 93 53 877
a 93 54 15
a 93 55 302
a 93 56 658
a 93 57 80
a 93 59 183
a 93 60 143
a 93 63 273
a 93 68 523
a 93 73 576
a 93 75 719
a 93 76 565
a 93 77 912
a 93 79 297
a 93 82 507
a 93 84 320
a 93 86 602
a 93 88 346
a 93 89 238
a 93 90 976
a 93 91 555
a 93 97 655
a 93 99 904
a 93 100 870
a 94 3 382
a 94 4 76
a 94 10 231
a 94 11 177
a 94 12 753
a 94 13 437
a 94 15 637
a 94 18 917
a 94 21 757
a 94 22 755
a 94 23 403
a 94 24 129
a 94 25 158
a 94 26 222
a 94 28 126
a 94 29 283
a 94 31 126
a 94 32 391
a 94 34 338
a 94 36 288
a 94 38 846
a 94 40 411
a 94 41 372
a 94 42 198
a 94 44 202
a 94 47 530
a 94 50 578
a 94 51 427
a 94 53 728
a 94 57 850
a 94 59 427
a 94 63 483
a 94 64 390
a 94 65 424
a 94 66 64
a 94 67 498
a 94 69 333
a 94 71 658
a 94 73 976
a 94 74 618
a 94 75 386
a 94 78 893
a 94 80 456
a 94 81 197
a 94 87 390
a 94 88 600
a 94 90 605
a 94 91 744
a 94 97 244
a 94 99 556
a 94 100 774
a 95 1 995
a 95 10 53
a 95 12 224
a 95 14 209
a 95 17 868
a 95 18 678
a 95 21 833
a 95 22 40
a 95 26 697
a 95 29 855
a 95 37 408
a 95 40 61
a 95 45 269
a 95 47 689
a 95 50 195
a 95 52 530
a 95 55 103
a 95 56 523
a 95 57 853
a 95 58 638
a 95 59 857
a 95 60 411
a 95 61 378
a 95 63 852
a 95 64 372
a 95 66 93
a 95 70 292
a 95 71 851
a 95 73 529
a 95 76 174
a 95 79 180
a 95 81 548
a 95 82 968
a 95 83 234
a 95 84 98
a 95 85 599
a 95 88 635
a 95 92 436
a 95 94 278
a 95 97 720
a 95 98 690
a 96 2 457
a 96 3 137
a 96 6 937
a 96 8 752
a 96 11 310
a 96 12 637
a 96 14 112
a 96 16 349
a 96 19 699
a 96 20 291
a 96 21 254
a 96 22 484
a 96 26 528
a 96 29 113
a 96 32 360
a 96 33 612
a 96 36 277
a 96 41 112
a 96 45 618
a 96 48 4
a 96 53 678
a 96 54 813
a 96 57 868
a 96 58 803
a 96 59 343
a 96 60 893
a 96 61 974
a 96 62 848
a 96 64 679
a 96 67 411
a 96 68 916
a 96 70 625
a 96 75 805
a 96 77 408
a 96 79 369
a 96 81 428
a 96 83 324
a 96 85 693
a 96 86 943
a 96 88 696
a 96 89 61
a 96 94 594
a 96 97 760
a 96 98 337
a 96 100 501
a 97 1 104
a 97 4 48
a 97 5 88
a 97 9 230
a 97 11 402
a 97 15 919
a 97 17 445
a 97 18 58
a 97 19 670
a 97 20 728
a 97 21 452
a 97 22 516
a 97 23 847
a 97 25 978
a 97 27 542
a 97 28 201
a 97 30 858
a 97 33 728
a 97 35 972
a 97 36 283
a 97 38 542
a 97 43 348
a 97 48 20
a 97 49 454
a 97 50 433
a 97 54 639
a 97 55 805
a 97 56 781
a 97 57 577
a 97 58 322
a 97 60 782
a 97 63 192
a 97 65 149
a 97 66 763
a 97 67 896
a 97 68 33
a 97 70 364
a 97 73 82
a 97 77 906
a 97 78 692
a 97 80 294
a 97 83 899
a 97 84 628
a 97 86 274
a 97 89 926
a 97 91 597
a 97 93 5
a 97 94 331
a 97 96 142
a 97 99 325
a 98 1 633
a 98 3 194
a 98 4 688
a 98 7 499
a 98 13 526
a 98 14 708
a 98 16 778
a 98 18 44
a 98 20 863
a 98 23 635
a 98 24 312
a 98 25 467
a 98 26 331
a 98 28 19
a 98 29 921
a 98 33 496
a 98 34 201
a 98 36 83
a 98 37 830
a 98 38 454
a 98 39 383
a 98 40 985
a 98 41 917
a 98 42 861
a 98 45 782
a 98 46 163
a 98 47 181
a 98 48 783
a 98 53 627
a 98 55 505
a 98 56 667
a 98 60 324
a 98 61 966
a 98 62 817
a 98 64 579
a 98 70 413
a 98 71 787
a 98 75 33
a 98 76 422
a 98 77 125
a 98 78 990
a 98 80 765
a 98 81 913
a 98 82 238
a 98 86 39
a 98 87 401
a 98 88 76
a 98 89 389
a 98 92 914
a 98 95 666
a 98 96 653
a 98 97 707
a 98 100 172
a 99 1 339
a 99 2 1
a 99 4 132
a 99 7 583
a 99 12 14
a 99 15 50
a 99 16 950
a 99 17 490
a 99 19 204
a 99 20 290
a 99 25 346
a 99 26 199
a 99 27 97
a 99 28 746
a 99 30 887
a 99 31 698
a 99 33 807
a 99 34 332
a 99 36 326
a 99 43 243
a 99 44 847
a 99 46 431
a 99 47 456
a 99 48 231
a 99 51 828
a 99 57 787
a 99 60 232
a 99 62 410
a 99 63 68
a 99 64 287
a 99 67 382
a 99 70 77
a 99 72 978
a 99 78 364
a 99 80 239
a 99 85 572
a 99 88 747
a 99 90 954
a 99 93 477
a 99 95 705
a 99 97 100
a 100 2 571
a 100 5 53
a 100 8 841
a 100 10 348
a 100 11 664
a 100 13 110
a 100 18 966
a 100 19 376
a 100 22 297
a 100 23 880
a 100 25 558
a 100 27 312
a 100 29 445
a 100 31 752
a 100 36 710
a 100 37 290
a 100 38 109
a 100 39 728
a 100 42 609
a 100 43 230
a 100 46 567
a 100 47 704
a 100 48 860
a 100 49 766
a 100 54 221
a 100 56 52
a 100 57 422
a 100 61 725
a 100 62 344
a 100 63 756
a 100 65 137
a 100 66 792
a 100 69 633
a 100 76 733
a 100 78 354
a 100 81 577
a 100 82 149
a 100 83 883
a 100 85 205
a 100 91 470
a 100 93 108
a 100 99 932